<?xml version="1.0" encoding="UTF-8" standalone="no"?>
<!-- Created with Inkscape (http://www.inkscape.org/) -->

<svg
   xmlns:osb="http://www.openswatchbook.org/uri/2009/osb"
   xmlns:dc="http://purl.org/dc/elements/1.1/"
   xmlns:cc="http://creativecommons.org/ns#"
   xmlns:rdf="http://www.w3.org/1999/02/22-rdf-syntax-ns#"
   xmlns:svg="http://www.w3.org/2000/svg"
   xmlns="http://www.w3.org/2000/svg"
   xmlns:sodipodi="http://sodipodi.sourceforge.net/DTD/sodipodi-0.dtd"
   xmlns:inkscape="http://www.inkscape.org/namespaces/inkscape"
   width="169.63254mm"
   height="54.828182mm"
   viewBox="0 0 169.63254 54.828182"
   version="1.1"
   id="svg6379"
   sodipodi:docname="Webaasnn Logo in Sunshine Color.svg"
   inkscape:version="0.92.3 (unknown)">
  <defs
     id="defs6373">
    <linearGradient
       id="linearGradient7121"
       osb:paint="solid">
      <stop
         style="stop-color:#000000;stop-opacity:1;"
         offset="0"
         id="stop7119" />
    </linearGradient>
  </defs>
  <sodipodi:namedview
     id="base"
     pagecolor="#ffffff"
     bordercolor="#666666"
     borderopacity="1.0"
     inkscape:pageopacity="0.0"
     inkscape:pageshadow="2"
     inkscape:zoom="0.98994949"
     inkscape:cx="354.48387"
     inkscape:cy="131.12498"
     inkscape:document-units="mm"
     inkscape:current-layer="layer1"
     showgrid="false"
     inkscape:window-width="1920"
     inkscape:window-height="1025"
     inkscape:window-x="0"
     inkscape:window-y="27"
     inkscape:window-maximized="1" />
  <metadata
     id="metadata6376">
    <rdf:RDF>
      <cc:Work
         rdf:about="">
        <dc:format>image/svg+xml</dc:format>
        <dc:type
           rdf:resource="http://purl.org/dc/dcmitype/StillImage" />
        <dc:title></dc:title>
      </cc:Work>
    </rdf:RDF>
  </metadata>
  <g
     transform="translate(-17.428895,-86.754389)"
     style="display:none"
     id="g7041"
     inkscape:groupmode="layer"
     inkscape:label="Black on White">
    <rect
       y="86.79232"
       x="17.428896"
       height="55.057522"
       width="170.51794"
       id="rect7039"
       style="fill:#ffffff;fill-opacity:1;stroke:#000000;stroke-width:0.26458332;stroke-linecap:butt;stroke-linejoin:round;stroke-opacity:1;paint-order:normal" />
    <g
       style="display:inline"
       inkscape:label="Main Text"
       id="g7033"
       inkscape:groupmode="layer">
      <path
         style="display:inline;fill:#000000;fill-opacity:1;stroke-width:0.27492544"
         d="m 78.871734,125.42197 c -0.976944,-1.11257 -2.820332,-3.71807 -4.096404,-5.78999 -1.276083,-2.07192 -2.355448,-3.64737 -2.398597,-3.50099 -0.04313,0.14637 -0.686297,2.5094 -1.429206,5.2512 -1.374263,5.07186 -1.688289,5.85479 -2.07727,5.1791 -0.159603,-0.27727 -3.821875,-17.41459 -4.744074,-22.19959 -0.102377,-0.53121 -0.0082,-0.64095 0.550164,-0.64095 0.856275,0 0.825363,-0.10522 2.842132,9.67545 0.887307,4.30312 1.655372,7.86904 1.706814,7.92427 0.08238,0.0883 1.03592,-3.07171 2.031829,-6.7334 0.185545,-0.68217 0.51242,-1.31244 0.726405,-1.40061 0.521245,-0.21473 0.989378,0.45156 3.533781,5.02956 1.905252,3.42802 3.480579,5.7294 3.922401,5.73018 0.08084,1.5e-4 0.109207,-3.16722 0.06307,-7.03857 -0.107737,-9.04098 0.321461,-12.90201 1.434204,-12.90201 0.354522,0 0.381375,0.86494 0.223316,7.19276 -0.09881,3.95602 -0.254509,9.22983 -0.345987,11.71961 l -0.166316,4.52684 z m 8.452384,1.04813 c -0.687007,-0.73755 -0.990588,-1.39343 -1.238798,-2.67635 -0.718709,-3.71486 0.234927,-7.55131 2.398749,-9.65005 0.88247,-0.85592 1.249736,-1.0225 2.254435,-1.0225 1.070074,0 1.330715,0.14008 2.403383,1.29169 1.002728,1.07651 1.189422,1.44397 1.120702,2.20565 l -0.08247,0.91397 -3.1371,0.60682 c -1.725397,0.33375 -3.244406,0.72202 -3.375552,0.86282 -0.384675,0.41298 -0.601486,4.14546 -0.290524,5.00137 0.461715,1.27084 1.694304,1.76166 4.450013,1.77199 1.922001,0.007 2.394489,0.0886 2.285503,0.39346 -0.213921,0.59849 -1.326185,0.93323 -3.697945,1.11292 l -2.180393,0.16519 z m 3.706222,-9.68282 c 0.957129,-0.31033 1.82106,-1.21469 1.572617,-1.64625 -0.09339,-0.16223 -0.643909,-0.44747 -1.223386,-0.63385 -1.303412,-0.41925 -2.128516,-0.0272 -2.951551,1.40254 -0.452407,0.78586 -0.49128,1.0182 -0.20243,1.20983 0.372566,0.2472 1.388671,0.12684 2.80475,-0.33227 z m 23.65364,10.15236 c -0.91355,-0.55676 -1.267,-1.26373 -1.267,-2.53428 0,-1.43358 0.47505,-2.3602 1.46988,-2.86701 1.25888,-0.64135 3.627,-0.56752 4.94457,0.15412 l 1.08661,0.59513 -0.12902,-2.94524 c -0.14512,-3.31327 -0.62966,-4.91084 -1.6392,-5.40466 -0.54935,-0.26871 -0.98572,-0.19569 -2.54965,0.42665 -1.03778,0.41299 -1.94805,0.75088 -2.02281,0.75088 -0.0748,0 -0.0978,-0.27556 -0.0512,-0.61236 0.19839,-1.4329 3.10257,-2.50913 4.9856,-1.84759 1.18031,0.41465 2.00486,1.95009 2.38795,4.44664 0.43377,2.82685 0.74566,8.35124 0.5013,8.87932 -0.34422,0.74391 -1.75746,1.14766 -4.47337,1.27802 -1.946,0.0934 -2.68552,0.0205 -3.24369,-0.31962 z m 5.11697,-1.32835 c 0.97387,-0.58762 1.00177,-0.64484 0.6603,-1.35378 -0.89601,-1.86017 -2.55281,-2.38032 -4.39886,-1.38095 -0.89219,0.483 -1.20614,0.828 -1.26705,1.39242 -0.19502,1.80671 2.87262,2.62934 5.00561,1.34231 z m 8.41517,1.32835 c -0.91358,-0.55676 -1.26702,-1.26373 -1.26702,-2.53428 0,-1.43358 0.47506,-2.3602 1.46989,-2.86701 1.25888,-0.64135 3.62699,-0.56752 4.94457,0.15412 l 1.08662,0.59513 -0.12903,-2.94524 c -0.14513,-3.31327 -0.62966,-4.91084 -1.63921,-5.40466 -0.54935,-0.26871 -0.98572,-0.19569 -2.54966,0.42665 -1.03777,0.41299 -1.94803,0.75088 -2.0228,0.75088 -0.0748,0 -0.0978,-0.27556 -0.0512,-0.61236 0.1984,-1.4329 3.10257,-2.50913 4.98561,-1.84759 1.18031,0.41465 2.00486,1.95009 2.38794,4.44664 0.43376,2.82685 0.74567,8.35124 0.50131,8.87932 -0.34422,0.74391 -1.75747,1.14766 -4.47338,1.27802 -1.94598,0.0934 -2.68552,0.0205 -3.24368,-0.31962 z m 5.11695,-1.32835 c 0.97387,-0.58762 1.00177,-0.64484 0.6603,-1.35378 -0.89601,-1.86017 -2.55282,-2.38032 -4.39885,-1.38095 -0.89219,0.483 -1.20614,0.828 -1.26706,1.39242 -0.19502,1.80671 2.87262,2.62934 5.00561,1.34231 z m 10.34128,1.11206 c -0.64059,-0.35252 -1.34985,-0.9499 -1.57617,-1.32752 -0.39929,-0.66627 -0.392,-0.68193 0.24613,-0.5294 0.36168,0.0865 1.25686,0.4404 1.98928,0.78653 1.18276,0.55895 1.46189,0.59166 2.49626,0.29262 1.6361,-0.47296 2.6739,-1.65747 2.66872,-3.04596 -0.008,-2.11158 -0.77645,-2.5137 -4.69484,-2.45634 l -2.97421,0.0435 -0.83605,-1.02228 c -0.72013,-0.88053 -0.81654,-1.17833 -0.69543,-2.14785 0.29371,-2.35087 2.56382,-3.77098 5.72182,-3.57941 2.12514,0.12891 2.9521,0.68689 2.9521,1.99183 0,0.99127 -0.1104,1.00104 -1.10981,0.0982 -0.99026,-0.89456 -1.77689,-1.1095 -3.21393,-0.87814 -1.70581,0.27463 -2.77875,1.09075 -2.98489,2.27046 -0.0953,0.54567 -0.0948,1.12863 7.3e-4,1.29547 0.10689,0.18578 1.3443,0.30334 3.19299,0.30334 1.66014,0 3.35455,0.13673 3.76537,0.30384 2.46884,1.00425 2.97395,4.26541 0.99045,6.39485 -1.77086,1.90119 -3.89305,2.33219 -5.93912,1.20621 z m 12.0783,0.38145 c -0.18547,-0.32216 -0.662,-13.19078 -0.49936,-13.4851 0.065,-0.11749 0.29266,-0.21364 0.50609,-0.21364 0.44952,0 0.80187,0.81191 1.04538,2.40876 l 0.17182,1.12691 0.45666,-1.4482 c 0.59992,-1.90249 1.19841,-2.84713 2.23291,-3.52432 1.60635,-1.05153 3.53188,-0.55518 4.80657,1.23902 1.10768,1.55907 1.51192,3.94897 1.56541,9.25478 0.0471,4.67359 0.0377,4.76041 -0.52345,4.84627 -0.56351,0.0863 -0.57312,0.0149 -0.6917,-5.12752 -0.13151,-5.70301 -0.35023,-6.87103 -1.56484,-8.35619 -2.69993,-3.30134 -5.70758,1.82307 -6.23249,10.61888 -0.15191,2.54544 -0.23513,2.91983 -0.64895,2.91983 -0.26108,0 -0.5419,-0.11676 -0.62405,-0.25948 z m 15.14193,-1.80576 c -0.08,-1.13588 -0.20776,-4.27649 -0.28384,-6.97911 -0.13006,-4.62012 -0.10939,-4.91387 0.34564,-4.91387 0.60222,0 1.0998,1.123 1.0998,2.48221 0,1.28606 0.21496,1.07124 0.84254,-0.84199 0.26972,-0.82227 0.90888,-1.9443 1.42037,-2.49343 0.83387,-0.89523 1.07829,-0.99839 2.36543,-0.99839 1.75951,0 2.68679,0.64068 3.52589,2.43613 0.88172,1.88668 1.13251,3.84754 1.13251,8.85479 0,4.49632 -0.003,4.5189 -0.597,4.51909 -0.59538,1.9e-4 -0.59675,-0.0108 -0.50429,-4.03248 0.12947,-5.63146 -0.55767,-8.86101 -2.13823,-10.04953 -2.67159,-2.00897 -5.32282,3.04627 -5.70454,10.87713 -0.15067,3.09088 -0.17757,3.20469 -0.75748,3.20469 -0.55613,0 -0.6122,-0.15503 -0.7468,-2.06524 z m -69.77149,1.59047 c -0.0973,-0.10444 -0.1769,-0.43862 -0.1769,-0.74262 0,-0.38861 0.12549,-0.50101 0.42266,-0.3786 1.70399,0.702 3.88809,0.29896 4.96831,-0.91683 1.96557,-2.21224 1.58481,-5.9695 -0.74759,-7.37714 -1.37358,-0.82899 -2.03346,-0.81358 -3.01194,0.0703 -1.06112,0.95857 -1.54087,2.50283 -1.92232,6.18763 -0.26609,2.57026 -0.3901,3.06226 -0.771997,3.06226 -0.498994,0 -0.585171,-1.294 -0.962777,-14.45673 -0.172089,-5.99807 -0.16864,-6.05331 0.377434,-6.05331 0.303103,0 0.613753,0.22433 0.690313,0.4985 0.0766,0.27419 0.277407,2.67771 0.446287,5.34117 0.16893,2.66346 0.32969,4.87089 0.35726,4.9054 0.0276,0.0346 0.47961,-0.26531 1.0045,-0.66625 2.07048,-1.58156 4.91156,-0.58971 6.21644,2.17024 1.69863,3.59273 0.66456,7.15002 -2.3586,8.11388 -1.37415,0.4381 -4.20749,0.58946 -4.53108,0.24206 z m 16.53926,-19.18068 v -0.85459 h 7.96007 7.96007 v 0.85459 0.85457 h -7.96007 -7.96007 z m 41.92305,-0.4273 v -0.71215 h 7.96007 7.96007 v 0.71215 0.71215 h -7.96007 -7.96007 z"
         id="path7031"
         inkscape:connector-curvature="0" />
    </g>
    <g
       style="display:inline"
       inkscape:label="Tag Text"
       id="g7037"
       inkscape:groupmode="layer">
      <path
         style="display:inline;fill:#000000;fill-opacity:1;stroke-width:0.25690815"
         d="m 134.61586,137.36923 c -0.0705,-2.36419 -0.18759,-3.219 -0.46329,-3.37991 -0.59591,-0.3478 0.8082,-1.51416 1.82282,-1.51416 0.87517,0 2.11457,0.93777 2.11457,1.59995 0,0.81598 -0.66179,1.66552 -1.60305,2.05784 -1.05088,0.43798 -1.30037,0.97246 -1.30855,2.80321 -0.002,0.49785 -0.1085,1.06097 -0.23616,1.25139 -0.14276,0.21298 -0.26837,-0.87172 -0.32634,-2.81832 z m 2.48289,-2.08066 c 0.97664,-0.83145 0.16842,-2.31401 -1.26149,-2.31401 -0.89207,0 -1.12938,0.41866 -0.89251,1.57451 0.11804,0.57605 0.21982,1.14381 0.22615,1.2617 0.0166,0.31058 1.38501,-0.0601 1.92785,-0.5222 z m -64.508231,0.88216 c -0.174449,-0.1648 -0.317189,-0.84409 -0.317189,-1.50954 0,-0.96349 0.137075,-1.33942 0.672969,-1.84566 0.616725,-0.58261 0.721643,-0.60525 1.255538,-0.27094 0.987221,0.61817 0.86585,1.09242 -0.325641,1.27241 -0.848036,0.12811 -1.099241,0.28846 -1.23146,0.78614 -0.226638,0.85304 0.298257,1.36783 1.39467,1.36783 0.538262,0 0.841803,0.10173 0.744998,0.2497 -0.228106,0.34867 -1.810042,0.31265 -2.193885,-0.05 z m 1.59916,-3.07133 c -0.0975,-0.36859 -0.928169,-0.30349 -1.064705,0.0834 -0.08062,0.2284 0.07873,0.3069 0.506623,0.24972 0.343292,-0.046 0.594427,-0.19582 0.558082,-0.33316 z m 2.048509,3.15249 c 0,-0.12018 0.317828,-0.2185 0.706277,-0.2185 1.216665,0 1.84207,-1.3649 0.992954,-2.16703 -0.885141,-0.83619 -1.527241,-0.36582 -1.850433,1.3555 -0.205129,1.09248 -0.216087,1.10286 -0.395102,0.37456 -0.293801,-1.19537 -0.280275,-5.11886 0.01768,-5.11886 0.147015,0 0.264319,0.66879 0.264319,1.50698 0,1.43892 0.02426,1.49469 0.538642,1.23468 0.776378,-0.39252 1.571248,-0.0629 1.961264,0.81337 0.411647,0.92489 0.259995,1.58317 -0.477071,2.07088 -0.605556,0.40069 -1.758503,0.49799 -1.758503,0.14842 z m 7.543649,-0.11799 c -0.435253,-0.30067 -0.366947,-0.33389 0.641641,-0.31212 0.813282,0.0175 1.212332,-0.0998 1.427797,-0.41974 0.391226,-0.58096 -0.141357,-0.92022 -1.452769,-0.92545 -1.185804,-0.005 -1.71171,-0.50423 -1.298609,-1.23342 0.437515,-0.77228 2.329619,-1.06238 2.566336,-0.39346 0.04963,0.14027 -0.401598,0.24969 -1.029599,0.24969 -0.853771,0 -1.139543,0.10329 -1.209232,0.43699 -0.07552,0.36163 0.105782,0.43763 1.051521,0.44081 1.815523,0.006 2.421763,0.75233 1.505288,1.85299 -0.586399,0.70424 -1.450112,0.82335 -2.202374,0.30371 z m 3.52423,-0.0765 c -0.490741,-0.55875 -0.415077,-2.40509 0.130849,-3.19218 0.927798,-1.33766 2.546109,-0.46066 2.546109,1.37977 0,1.70628 -1.737165,2.88241 -2.676958,1.81241 z m 2.138553,-1.06295 c 0.459757,-1.04853 0.05219,-2.14469 -0.797439,-2.14469 -1.127462,0 -1.771242,2.148 -0.892549,2.97808 0.544454,0.51434 1.25205,0.16541 1.689988,-0.83339 z m 1.529605,1.33093 c -0.109029,-0.10334 -0.19823,-1.76475 -0.19823,-3.69203 0,-2.40265 0.08554,-3.42332 0.272075,-3.2471 0.167726,0.15843 0.243755,1.57452 0.198244,3.69202 -0.04069,1.88926 -0.16304,3.35046 -0.272089,3.24711 z m 1.808191,-0.41679 c -0.211578,-0.309 -0.452208,-0.87082 -0.534743,-1.24849 -0.08256,-0.37767 -0.211796,-0.96759 -0.287263,-1.31092 -0.0986,-0.4488 -0.02438,-0.62427 0.264337,-0.62427 0.265231,0 0.401508,0.2416 0.401508,0.71185 0,1.14505 0.525233,2.28456 1.053041,2.28456 0.547941,0 1.325882,-1.37733 1.325882,-2.34746 0,-0.7335 0.423104,-0.87646 0.627295,-0.21196 0.320387,1.04268 0.477335,3.30854 0.229169,3.30854 -0.143955,0 -0.335147,-0.34678 -0.424889,-0.77059 l -0.16314,-0.77057 -0.686358,0.77057 c -0.81538,0.91542 -1.283893,0.9696 -1.804839,0.20875 z m 5.183177,0.26219 c -0.174444,-0.16481 -0.317185,-0.9322 -0.317185,-1.7053 0,-1.23616 -0.06245,-1.40328 -0.517823,-1.38584 -0.728222,0.0279 -0.69729,-0.45155 0.03966,-0.61466 0.369661,-0.0819 0.643643,-0.35258 0.694809,-0.68668 0.11584,-0.75654 0.57634,-0.69848 0.57634,0.0726 0,0.45778 0.140965,0.62425 0.528638,0.62425 0.290758,0 0.528651,0.11235 0.528651,0.24969 0,0.13734 -0.235626,0.2497 -0.523617,0.2497 -0.603653,0 -0.880691,0.74684 -0.751408,2.0255 0.0722,0.71462 0.19919,0.85839 0.816941,0.92549 0.402246,0.0437 0.662854,0.18413 0.579124,0.31211 -0.216638,0.33114 -1.278201,0.28819 -1.654121,-0.0669 z m 2.802907,-1.38583 c -0.0934,-1.62518 -0.0607,-2.01115 0.15141,-1.78953 0.25748,0.26892 0.44967,3.47501 0.20831,3.47501 -0.14455,0 -0.30642,-0.75847 -0.35972,-1.68548 z m 1.33971,1.27245 c -0.49076,-0.55875 -0.41507,-2.40509 0.13085,-3.19218 0.92779,-1.33766 2.5461,-0.46066 2.5461,1.37977 0,1.70628 -1.73716,2.88241 -2.67695,1.81241 z m 2.13856,-1.06295 c 0.45975,-1.04853 0.0522,-2.14469 -0.79745,-2.14469 -1.12746,0 -1.77125,2.148 -0.89255,2.97808 0.54446,0.51434 1.25206,0.16541 1.69,-0.83339 z m 1.06704,-0.55221 c 0,-1.62875 0.0673,-1.97547 0.3413,-1.7606 0.25344,0.1987 0.42412,0.14229 0.66304,-0.21912 0.44004,-0.66562 1.53563,-0.62445 1.99829,0.0751 0.43694,0.66064 0.74352,3.20936 0.44156,3.67091 -0.11944,0.18255 -0.25478,-0.4423 -0.31542,-1.4563 -0.0744,-1.24498 -0.24228,-1.90456 -0.56125,-2.20588 -0.43048,-0.40666 -0.48435,-0.40213 -0.9991,0.0841 -0.34491,0.32585 -0.65443,1.12267 -0.84561,2.17695 -0.16585,0.91464 -0.39632,1.66298 -0.51217,1.66298 -0.11585,0 -0.21064,-0.91266 -0.21064,-2.02818 z m 4.87444,1.66505 c -0.47047,-0.33299 -0.42746,-0.35051 0.51776,-0.21097 0.81525,0.12038 1.10455,0.0571 1.38322,-0.30304 0.50569,-0.65332 -0.005,-1.12046 -1.22462,-1.12046 -1.65941,0 -2.11072,-1.16925 -0.68771,-1.78175 0.66354,-0.2856 2.00932,-0.11988 2.00932,0.24742 0,0.11225 -0.50183,0.19438 -1.11521,0.18253 -0.8615,-0.0167 -1.1365,0.0779 -1.20883,0.41542 -0.0778,0.36303 0.10198,0.43697 1.06235,0.43697 0.63578,0 1.29871,0.13485 1.47316,0.29965 0.50468,0.47675 0.36883,1.38578 -0.27028,1.80865 -0.7329,0.48496 -1.27991,0.49218 -1.93916,0.0255 z m 6.94028,-0.13627 c -0.27425,-0.96585 -0.21644,-3.49581 0.0798,-3.49581 0.14538,0 0.26909,0.19665 0.27491,0.43698 0.008,0.31156 0.12377,0.23988 0.40494,-0.2497 0.49579,-0.86335 1.78755,-0.96422 2.23492,-0.17455 0.43299,0.76429 0.67175,3.9825 0.29546,3.9825 -0.19576,0 -0.30267,-0.56354 -0.30267,-1.59541 0,-1.23243 -0.12027,-1.7295 -0.52864,-2.18488 l -0.52866,-0.58948 -0.52021,0.57965 c -0.28611,0.3188 -0.59514,0.99298 -0.68673,1.4982 -0.0916,0.50521 -0.25191,1.25565 -0.35624,1.66765 l -0.1897,0.74912 z m 4.27532,0.0864 c -0.49075,-0.55876 -0.41507,-2.4051 0.13085,-3.19218 0.9278,-1.33767 2.5461,-0.46067 2.5461,1.37977 0,1.70628 -1.73716,2.88239 -2.67695,1.81241 z m 2.13856,-1.06296 c 0.45975,-1.04853 0.0522,-2.14469 -0.79744,-2.14469 -1.12747,0 -1.77124,2.14801 -0.89256,2.97807 0.54446,0.51435 1.25206,0.16542 1.69,-0.83338 z m 15.34983,0.99299 c -0.6102,-1.07707 -0.0523,-3.25159 0.92522,-3.60592 0.59702,-0.21643 1.4444,0.27027 1.4444,0.82964 0,0.35324 -0.26397,0.51079 -1.07174,0.63969 -1.04421,0.16668 -1.06965,0.19448 -0.9912,1.0832 0.0758,0.85878 0.1388,0.91667 1.07726,0.98993 1.21706,0.095 1.0435,0.54646 -0.21008,0.54646 -0.61953,0 -0.98556,-0.15062 -1.17386,-0.483 z m 1.78363,-2.97141 c 0.0789,-0.22635 -0.0772,-0.30638 -0.48724,-0.24969 -0.3319,0.0459 -0.65577,0.23334 -0.7197,0.41656 -0.079,0.22636 0.0772,0.30639 0.48725,0.24971 0.33189,-0.0459 0.65576,-0.23336 0.71969,-0.41658 z m 1.36057,3.05891 c -0.52539,-0.59802 0.0255,-1.21322 1.16853,-1.30507 0.89437,-0.0719 0.96444,-0.13628 0.96444,-0.88643 0,-1.06659 -0.40783,-1.43924 -1.24574,-1.13831 -0.48745,0.17508 -0.62267,0.1549 -0.54078,-0.0807 0.13226,-0.38048 1.49145,-0.56789 1.82608,-0.25177 0.44037,0.416 0.80619,3.32223 0.46681,3.70851 -0.42063,0.4788 -2.20554,0.44751 -2.63934,-0.0462 z m 1.85166,-0.0887 c 0.31449,-0.188 0.32028,-0.29425 0.0336,-0.62043 -0.19016,-0.21647 -0.49505,-0.39357 -0.67753,-0.39357 -0.18245,0 -0.48734,0.1771 -0.67752,0.39357 -0.28655,0.32618 -0.28078,0.43243 0.0336,0.62043 0.20871,0.12476 0.49842,0.22684 0.64381,0.22684 0.14538,0 0.43509,-0.10208 0.64381,-0.22684 z m 1.70876,-0.14298 c -0.77471,-1.11695 0.24198,-3.36804 1.52116,-3.36804 0.4938,0 0.91036,0.95203 0.67817,1.54991 -0.069,0.17756 -0.21242,0.0138 -0.3188,-0.36382 -0.23382,-0.83021 -0.7539,-0.88248 -1.31056,-0.13173 -0.52759,0.71158 -0.52719,1.79706 7.3e-4,2.29587 0.36469,0.3445 0.51736,0.34804 1.32163,0.0305 0.95535,-0.37708 1.27774,-0.0888 0.39804,0.35592 -0.89572,0.45287 -1.82432,0.30339 -2.29046,-0.36867 z m 3.91266,0.31364 c -0.53166,-0.60515 -0.62283,-1.60842 -0.22739,-2.50247 0.51509,-1.16458 1.22269,-1.53151 1.98315,-1.02833 0.86707,0.57373 0.6864,0.97725 -0.55385,1.23694 -0.97176,0.20349 -1.13515,0.33267 -1.21062,0.95726 -0.10349,0.8564 0.27666,1.14028 1.54103,1.15073 0.69544,0.005 0.8267,0.0678 0.52864,0.24971 -0.56213,0.34318 -1.73533,0.30685 -2.06096,-0.0638 z m 1.52491,-2.92296 c 0.33095,-0.19773 0.31801,-0.25821 -0.0867,-0.40488 -0.29322,-0.1063 -0.64158,-0.0157 -0.9083,0.23627 -0.40061,0.37846 -0.3942,0.40842 0.0866,0.40488 0.28558,-0.002 0.69431,-0.10844 0.9083,-0.23627 z m 5.39838,2.60742 c -0.81486,-1.17485 0.0784,-3.61584 1.32302,-3.61584 0.84491,0 1.25559,0.53902 1.41247,1.85392 0.11282,0.94556 0.0337,1.1971 -0.54911,1.74776 -0.86146,0.81381 -1.6283,0.81877 -2.18638,0.0141 z m 2.01609,-0.38031 c 0.42181,-0.74456 0.21497,-2.26003 -0.35297,-2.58599 -0.3893,-0.22345 -0.5751,-0.16448 -0.9912,0.3145 -0.49667,0.57173 -0.7133,2.25846 -0.33588,2.615 0.37568,0.35491 1.40342,0.14476 1.68005,-0.34351 z m 2.48456,-0.27067 c 0.17847,-1.27093 0.17494,-1.27919 -0.49459,-1.15828 -0.83392,0.15059 -0.88573,-0.2281 -0.0788,-0.57545 0.51344,-0.22099 0.5826,-0.4111 0.50118,-1.3779 -0.26252,-3.11833 1.3279,-4.82668 3.01224,-3.23554 0.92059,0.86969 0.80927,1.37368 -0.11805,0.53441 -0.42773,-0.38711 -0.98296,-0.65489 -1.25554,-0.60551 -0.61185,0.11085 -1.11487,1.44816 -1.13461,3.01644 -0.0139,1.10244 0.0317,1.18608 0.64591,1.18608 0.86716,0 0.84924,0.40058 -0.0272,0.60838 -0.62399,0.14795 -0.67186,0.2444 -0.5145,1.03678 0.19434,0.97869 -0.0108,1.85064 -0.4353,1.85064 -0.18477,0 -0.21918,-0.4371 -0.10083,-1.28005 z m 10.86753,-0.25779 c -0.2358,-2.07505 -0.36447,-2.45737 -0.82705,-2.45737 -0.43849,0 -0.86452,0.90292 -0.95494,2.02387 -0.0953,1.18163 -0.3924,1.08434 -0.543,-0.1778 -0.16987,-1.42373 -0.55995,-1.85879 -1.15909,-1.29278 -0.28859,0.2726 -0.43792,0.86689 -0.45217,1.79962 -0.0283,1.85655 -0.32494,1.77245 -0.50893,-0.14433 -0.13111,-1.36598 -0.0838,-1.58726 0.42585,-1.9893 0.70189,-0.55374 1.08004,-0.57894 1.58133,-0.10538 0.33697,0.31833 0.44315,0.30279 0.85282,-0.12485 0.52776,-0.55091 1.3955,-0.64735 1.58633,-0.17632 0.27642,0.68235 0.57625,3.82088 0.38384,4.01798 -0.11278,0.11553 -0.28604,-0.50247 -0.38499,-1.37334 z m 1.44809,-0.39735 c 0.003,-1.34163 0.0826,-1.8203 0.26027,-1.56061 0.34003,0.49701 0.34003,3.4958 0,3.4958 -0.15381,0 -0.26262,-0.80898 -0.26027,-1.93519 z m 1.05034,0.87396 c -0.002,-0.58367 -0.0766,-1.4826 -0.16674,-1.9976 -0.10871,-0.62125 -0.0632,-0.93638 0.13508,-0.93638 0.16439,0 0.30367,0.19663 0.30948,0.43698 0.008,0.31156 0.12377,0.23987 0.40492,-0.2497 0.45109,-0.78548 1.66707,-0.95032 2.23569,-0.30308 0.44697,0.50879 0.7021,4.11101 0.29113,4.11101 -0.19379,0 -0.29909,-0.6091 -0.29909,-1.73007 0,-1.66874 -0.36002,-2.51484 -1.07008,-2.51484 -0.51213,0 -1.09951,1.29942 -1.23758,2.73778 -0.16523,1.72117 -0.59843,2.04162 -0.60281,0.4459 z m 4.11881,0.66884 c -0.529,-0.49973 -0.53059,-1.33867 -0.004,-2.04905 0.44766,-0.60375 1.4099,-0.73207 1.91458,-0.25531 0.2467,0.23303 0.31718,-0.2419 0.31718,-2.13721 0,-1.34026 0.0892,-2.38463 0.19825,-2.32083 0.35556,0.20806 0.40494,6.39454 0.0543,6.79376 -0.42181,0.48012 -1.95947,0.46069 -2.48033,-0.0314 z m 1.98516,-0.10701 c 0.42138,0 0.26292,-1.1696 -0.23756,-1.75348 -0.40892,-0.47705 -0.56602,-0.51695 -1.05729,-0.26858 -1.10965,0.56102 -0.46512,2.53123 0.70013,2.1402 0.19361,-0.0649 0.46124,-0.11814 0.59472,-0.11814 z m 1.30001,0.12485 c 0,-0.206 0.17842,-0.37455 0.39648,-0.37455 0.21807,0 0.39649,0.16855 0.39649,0.37455 0,0.206 -0.17842,0.37455 -0.39649,0.37455 -0.21806,0 -0.39648,-0.16855 -0.39648,-0.37455 z m -114.187898,-0.0149 c 0,-0.0768 -0.297359,-1.38414 -0.660813,-2.9051 -0.72131,-3.01862 -0.775118,-3.44739 -0.432654,-3.44739 0.125487,0 0.434573,0.9832 0.686865,2.18487 0.567722,2.70411 0.690712,2.90203 1.050519,1.69054 0.157446,-0.53011 0.405702,-1.00144 0.551679,-1.04741 0.145967,-0.0459 0.654267,0.5306 1.12955,1.28126 0.475284,0.75067 0.964313,1.42333 1.086734,1.49479 0.122419,0.0714 0.222571,-1.05625 0.222571,-2.50608 0,-1.61969 0.114658,-2.74434 0.297368,-2.91694 0.337988,-0.31929 0.423264,3.12647 0.127775,5.16299 l -0.169583,1.16882 -0.639882,-0.56789 c -0.351935,-0.31232 -0.880047,-0.93498 -1.173589,-1.38366 -0.29354,-0.44868 -0.623957,-0.81579 -0.734259,-0.81579 -0.110301,0 -0.357489,0.61801 -0.54931,1.37336 -0.191812,0.75534 -0.4487,1.37335 -0.57086,1.37335 -0.12216,0 -0.222111,-0.0629 -0.222111,-0.13972 z m 58.604108,-0.60938 c -1.20984,-2.57983 -1.51022,-3.32928 -1.38268,-3.44977 0.0774,-0.0731 0.46533,0.56079 0.86203,1.4087 0.3967,0.84791 0.80268,1.54167 0.90218,1.54167 0.0995,0 0.25898,-0.3358 0.35441,-0.74623 0.25755,-1.10782 0.52025,-1.10297 1.30982,0.0241 0.39208,0.55969 0.79316,0.9419 0.89131,0.84934 0.0981,-0.0926 0.24952,-0.86135 0.33637,-1.70839 0.15371,-1.49885 0.15903,-1.48157 0.19824,0.64477 0.0222,1.20169 -0.0645,2.18488 -0.19264,2.18488 -0.12812,0 -0.55048,-0.39328 -0.93858,-0.87395 -0.38811,-0.48066 -0.80239,-0.87395 -0.92064,-0.87395 -0.11825,0 -0.39387,0.42136 -0.61248,0.93638 l -0.39749,0.93637 z m -25.9515,-3.98204 c -0.232397,-0.35522 0.064,-0.76226 0.555,-0.76226 0.23159,0 0.36427,0.17542 0.31482,0.41627 -0.10296,0.50152 -0.63073,0.71145 -0.86982,0.34599 z m 72.54828,-0.26287 c 0,-0.47984 0.51692,-0.67695 0.87879,-0.3351 0.20009,0.18902 -0.30021,0.8345 -0.64683,0.8345 -0.12757,0 -0.23196,-0.22473 -0.23196,-0.4994 z"
         id="path7035"
         inkscape:connector-curvature="0" />
    </g>
    <g
       style="display:inline"
       inkscape:label="Sun"
       id="g7025"
       inkscape:groupmode="layer">
      <path
         style="display:inline;fill:#000000;fill-opacity:1;stroke-width:0.15224345"
         d="m 40.459483,116.01846 0.04266,-2.42602 0.65982,-0.0459 0.659821,-0.0459 v 2.47194 2.47192 H 41.119298 40.41682 Z m -6.595521,0.49804 c -0.235462,-0.14515 -0.470074,-0.30426 -0.521346,-0.35357 -0.05129,-0.0493 0.448797,-1.03035 1.11128,-2.18008 l 1.204502,-2.09045 0.603156,0.2959 c 0.331728,0.16274 0.575869,0.3437 0.542539,0.40213 -0.696352,1.22074 -2.463251,4.20895 -2.483941,4.20091 -0.01543,-0.006 -0.220729,-0.12968 -0.45619,-0.27484 z m 13.14805,-1.61774 c -0.575165,-0.96481 -1.145225,-1.90137 -1.266806,-2.08127 -0.208775,-0.30891 -0.186507,-0.34401 0.400851,-0.63217 l 0.621903,-0.3051 1.256409,2.10935 c 0.691026,1.16012 1.237385,2.12467 1.214137,2.14343 -0.09366,0.0756 -1.040949,0.51996 -1.108364,0.51996 -0.03978,0 -0.542963,-0.7894 -1.11813,-1.7542 z m -7.890358,-3.10112 c -2.019055,-0.5331 -3.972655,-1.93238 -4.960137,-3.55272 -3.251581,-5.33548 0.715053,-11.961513 7.143678,-11.933083 4.465718,0.01977 8.123914,3.565897 8.123914,7.875103 0,4.35686 -3.670283,7.8685 -8.17808,7.82458 -0.75344,-0.007 -1.711659,-0.10359 -2.129375,-0.21388 z m -10.977073,-0.91592 c -0.188097,-0.29266 -0.275164,-0.57468 -0.198688,-0.64355 0.233919,-0.2107 4.127634,-2.56198 4.162912,-2.51384 0.01842,0.0251 0.181578,0.28292 0.362617,0.57288 l 0.329152,0.52723 -2.160591,1.28911 -2.160586,1.28913 z m 23.435369,-0.62022 -2.118586,-1.14591 0.298482,-0.56262 0.298482,-0.56262 0.500464,0.24457 c 0.451319,0.22056 3.851988,2.00593 3.961118,2.07961 0.07836,0.0528 -0.614316,1.11364 -0.720276,1.10302 -0.05563,-0.005 -1.05447,-0.5258 -2.219684,-1.15605 z m -0.59832,-6.37314 v -0.67183 h 2.561647 2.561654 v 0.67183 0.67181 H 53.543277 50.98163 Z m -24.685005,-0.0747 v -0.59717 h 2.561648 2.561654 v 0.59717 0.59718 h -2.561654 -2.561648 z m 23.282687,-4.412012 c -0.187476,-0.291711 -0.315434,-0.551498 -0.284352,-0.577311 0.178897,-0.148514 4.219013,-2.326064 4.315666,-2.326064 0.144906,0 0.721785,1.010569 0.624474,1.093936 -0.105374,0.09028 -4.204972,2.339817 -4.264119,2.339817 -0.02793,0 -0.204181,-0.238678 -0.391669,-0.530378 z M 30.517246,98.452032 c -1.0515,-0.559594 -1.983032,-1.085919 -2.070064,-1.169618 -0.107497,-0.103365 -0.06695,-0.322055 0.126422,-0.681878 l 0.284669,-0.52971 2.021279,1.072186 c 1.111704,0.5897 2.104866,1.125111 2.207024,1.189801 0.140621,0.08907 0.123476,0.243177 -0.07059,0.634493 -0.140972,0.284282 -0.330707,0.513573 -0.421629,0.509529 -0.09091,-0.0045 -1.025623,-0.465208 -2.077124,-1.024803 z m 15.489141,-2.424351 c -0.294909,-0.170657 -0.554383,-0.325628 -0.57661,-0.344367 -0.0889,-0.075 2.339509,-4.111694 2.473517,-4.111694 0.185785,0 1.06006,0.433677 1.06006,0.525827 0,0.05184 -2.255591,4.010762 -2.397915,4.208726 -0.01257,0.01746 -0.26415,-0.107835 -0.559052,-0.278492 z M 34.855335,94.026817 c -0.714872,-1.11136 -1.273778,-2.039406 -1.242014,-2.062332 0.03174,-0.02289 0.278778,-0.188319 0.548912,-0.367543 l 0.491162,-0.325877 1.2479,1.910744 c 0.686342,1.050899 1.286321,2.008694 1.333288,2.128412 0.07543,0.192291 -0.652362,0.743352 -0.975629,0.738721 -0.05716,-8.33e-4 -0.688749,-0.910775 -1.403619,-2.022125 z m 5.724433,-1.634079 v -2.463347 h 0.621009 0.621006 v 2.463347 2.463346 h -0.621006 -0.621009 z"
         id="path7023"
         inkscape:connector-curvature="0" />
    </g>
    <g
       style="display:inline"
       inkscape:label="Buddha"
       id="g7029"
       inkscape:groupmode="layer">
      <path
         style="display:inline;fill:#000000;fill-opacity:1;stroke-width:0.15636195"
         d="m 26.929186,137.7447 c -2.173173,-0.47718 -4.572555,-2.5065 -5.078234,-4.295 -0.157619,-0.55744 -0.147542,-0.82677 0.05362,-1.43311 l 0.247687,-0.74668 h -0.45583 c -0.561008,0 -1.779219,-0.75716 -2.04378,-1.27029 -0.167571,-0.325 -0.149006,-0.40939 0.13078,-0.59432 0.256144,-0.1693 0.620242,-0.19456 1.69745,-0.11776 1.339255,0.0955 1.399695,0.0854 2.581494,-0.43061 0.665573,-0.29061 1.71208,-0.92872 2.325567,-1.41802 1.47013,-1.17252 3.718559,-3.65574 3.945922,-4.35797 0.09915,-0.30624 0.255123,-1.7474 0.346612,-3.20259 0.250555,-3.98527 0.451074,-5.86317 0.671754,-6.29119 0.407124,-0.7896 1.789605,-1.3814 4.891684,-2.09402 2.258979,-0.51895 2.744507,-0.85651 2.744507,-1.90814 0,-0.52316 -0.101662,-0.79505 -0.423783,-1.13335 -1.466647,-1.54027 -2.006462,-4.28163 -1.144226,-5.81068 0.411023,-0.72888 1.535325,-1.65054 2.01343,-1.65054 0.15606,0 0.187065,-0.1708 0.115165,-0.63435 -0.08284,-0.534057 -0.0342,-0.700295 0.307669,-1.051495 0.331694,-0.340777 0.573757,-0.429454 1.321866,-0.484276 1.180385,-0.08648 1.868218,0.207549 2.130925,0.910953 0.137552,0.368328 0.14052,0.592178 0.01069,0.806588 -0.157562,0.26015 -0.102408,0.33196 0.447206,0.58226 1.376259,0.62678 2.21005,1.84963 2.204248,3.23278 -0.0057,1.38283 -0.776815,3.31275 -1.683074,4.21282 -0.16579,0.16466 -0.315242,0.42924 -0.332114,0.58795 -0.145625,1.36987 0.342471,1.78262 2.766541,2.33948 3.079661,0.70746 4.484907,1.30508 4.882644,2.07648 0.213645,0.41436 0.443969,2.5729 0.681006,6.38223 0.08804,1.41477 0.242551,2.82285 0.343369,3.12909 0.231682,0.70375 2.484751,3.19019 3.948953,4.35797 0.613489,0.4893 1.659993,1.12741 2.325566,1.41802 1.181807,0.51604 1.242239,0.52612 2.581495,0.43061 1.077209,-0.0768 1.441313,-0.0515 1.697449,0.11775 0.279787,0.18494 0.298357,0.26933 0.13078,0.59433 -0.264956,0.51389 -1.483093,1.27029 -2.045715,1.27029 h -0.457768 l 0.244205,0.6982 c 0.47124,1.34731 -0.156982,2.65484 -2.039059,4.24392 -1.741688,1.47053 -3.569019,1.88568 -6.803904,1.54577 -3.088619,-0.32453 -6.882825,-0.74727 -8.732536,-0.97292 -1.941585,-0.23688 -2.223917,-0.22884 -5.322684,0.15153 -6.826271,0.83796 -10.039083,1.06924 -11.227547,0.80829 z m 6.641149,-7.49447 c 0.599027,-0.4399 1.551277,-2.62512 1.838439,-4.21883 0.137489,-0.76307 -0.217725,-8.05424 -0.413259,-8.48257 -0.123426,-0.27035 -0.145976,-0.2416 -0.155394,0.1982 -0.0063,0.28296 -0.235931,1.86548 -0.510826,3.51674 -0.579388,3.4802 -0.608283,3.53992 -2.648542,5.4744 -1.421812,1.34809 -2.958751,2.49416 -4.126531,3.07709 -0.388105,0.19374 -0.706215,0.39805 -0.70692,0.45403 -0.0019,0.16251 1.226473,0.22812 3.923962,0.20951 1.916721,-0.0131 2.579529,-0.0673 2.799071,-0.22857 z m 22.510862,0.0669 c 0.06752,-0.064 0.04665,-0.14077 -0.0464,-0.17059 -1.290344,-0.41344 -5.560485,-3.86448 -6.459936,-5.22076 -0.379428,-0.57214 -0.529484,-1.15613 -0.943623,-3.67231 -0.270848,-1.64557 -0.497644,-3.22347 -0.503999,-3.50642 -0.0098,-0.43613 -0.03331,-0.4668 -0.154571,-0.20146 -0.196934,0.43101 -0.553833,7.60472 -0.419292,8.42774 0.243399,1.48899 1.227963,3.8304 1.776333,4.22434 0.121494,0.0873 0.370596,0.19557 0.553562,0.24062 0.496526,0.12232 6.055699,0.0136 6.197924,-0.12116 z"
         id="path7027"
         inkscape:connector-curvature="0" />
    </g>
  </g>
  <g
     inkscape:label="White on Black"
     inkscape:groupmode="layer"
     id="g7073"
     style="display:none"
     transform="translate(-17.428895,-86.754389)">
    <rect
       style="fill:#000000;fill-opacity:1;stroke:#000000;stroke-width:0.26458332;stroke-linecap:butt;stroke-linejoin:round;stroke-opacity:1;paint-order:normal"
       id="rect7055"
       width="170.51794"
       height="55.057522"
       x="17.428896"
       y="86.79232" />
    <g
       inkscape:groupmode="layer"
       id="g7059"
       inkscape:label="Main Text"
       style="display:inline">
      <path
         inkscape:connector-curvature="0"
         id="path7057"
         d="m 78.871734,125.42197 c -0.976944,-1.11257 -2.820332,-3.71807 -4.096404,-5.78999 -1.276083,-2.07192 -2.355448,-3.64737 -2.398597,-3.50099 -0.04313,0.14637 -0.686297,2.5094 -1.429206,5.2512 -1.374263,5.07186 -1.688289,5.85479 -2.07727,5.1791 -0.159603,-0.27727 -3.821875,-17.41459 -4.744074,-22.19959 -0.102377,-0.53121 -0.0082,-0.64095 0.550164,-0.64095 0.856275,0 0.825363,-0.10522 2.842132,9.67545 0.887307,4.30312 1.655372,7.86904 1.706814,7.92427 0.08238,0.0883 1.03592,-3.07171 2.031829,-6.7334 0.185545,-0.68217 0.51242,-1.31244 0.726405,-1.40061 0.521245,-0.21473 0.989378,0.45156 3.533781,5.02956 1.905252,3.42802 3.480579,5.7294 3.922401,5.73018 0.08084,1.5e-4 0.109207,-3.16722 0.06307,-7.03857 -0.107737,-9.04098 0.321461,-12.90201 1.434204,-12.90201 0.354522,0 0.381375,0.86494 0.223316,7.19276 -0.09881,3.95602 -0.254509,9.22983 -0.345987,11.71961 l -0.166316,4.52684 z m 8.452384,1.04813 c -0.687007,-0.73755 -0.990588,-1.39343 -1.238798,-2.67635 -0.718709,-3.71486 0.234927,-7.55131 2.398749,-9.65005 0.88247,-0.85592 1.249736,-1.0225 2.254435,-1.0225 1.070074,0 1.330715,0.14008 2.403383,1.29169 1.002728,1.07651 1.189422,1.44397 1.120702,2.20565 l -0.08247,0.91397 -3.1371,0.60682 c -1.725397,0.33375 -3.244406,0.72202 -3.375552,0.86282 -0.384675,0.41298 -0.601486,4.14546 -0.290524,5.00137 0.461715,1.27084 1.694304,1.76166 4.450013,1.77199 1.922001,0.007 2.394489,0.0886 2.285503,0.39346 -0.213921,0.59849 -1.326185,0.93323 -3.697945,1.11292 l -2.180393,0.16519 z m 3.706222,-9.68282 c 0.957129,-0.31033 1.82106,-1.21469 1.572617,-1.64625 -0.09339,-0.16223 -0.643909,-0.44747 -1.223386,-0.63385 -1.303412,-0.41925 -2.128516,-0.0272 -2.951551,1.40254 -0.452407,0.78586 -0.49128,1.0182 -0.20243,1.20983 0.372566,0.2472 1.388671,0.12684 2.80475,-0.33227 z m 23.65364,10.15236 c -0.91355,-0.55676 -1.267,-1.26373 -1.267,-2.53428 0,-1.43358 0.47505,-2.3602 1.46988,-2.86701 1.25888,-0.64135 3.627,-0.56752 4.94457,0.15412 l 1.08661,0.59513 -0.12902,-2.94524 c -0.14512,-3.31327 -0.62966,-4.91084 -1.6392,-5.40466 -0.54935,-0.26871 -0.98572,-0.19569 -2.54965,0.42665 -1.03778,0.41299 -1.94805,0.75088 -2.02281,0.75088 -0.0748,0 -0.0978,-0.27556 -0.0512,-0.61236 0.19839,-1.4329 3.10257,-2.50913 4.9856,-1.84759 1.18031,0.41465 2.00486,1.95009 2.38795,4.44664 0.43377,2.82685 0.74566,8.35124 0.5013,8.87932 -0.34422,0.74391 -1.75746,1.14766 -4.47337,1.27802 -1.946,0.0934 -2.68552,0.0205 -3.24369,-0.31962 z m 5.11697,-1.32835 c 0.97387,-0.58762 1.00177,-0.64484 0.6603,-1.35378 -0.89601,-1.86017 -2.55281,-2.38032 -4.39886,-1.38095 -0.89219,0.483 -1.20614,0.828 -1.26705,1.39242 -0.19502,1.80671 2.87262,2.62934 5.00561,1.34231 z m 8.41517,1.32835 c -0.91358,-0.55676 -1.26702,-1.26373 -1.26702,-2.53428 0,-1.43358 0.47506,-2.3602 1.46989,-2.86701 1.25888,-0.64135 3.62699,-0.56752 4.94457,0.15412 l 1.08662,0.59513 -0.12903,-2.94524 c -0.14513,-3.31327 -0.62966,-4.91084 -1.63921,-5.40466 -0.54935,-0.26871 -0.98572,-0.19569 -2.54966,0.42665 -1.03777,0.41299 -1.94803,0.75088 -2.0228,0.75088 -0.0748,0 -0.0978,-0.27556 -0.0512,-0.61236 0.1984,-1.4329 3.10257,-2.50913 4.98561,-1.84759 1.18031,0.41465 2.00486,1.95009 2.38794,4.44664 0.43376,2.82685 0.74567,8.35124 0.50131,8.87932 -0.34422,0.74391 -1.75747,1.14766 -4.47338,1.27802 -1.94598,0.0934 -2.68552,0.0205 -3.24368,-0.31962 z m 5.11695,-1.32835 c 0.97387,-0.58762 1.00177,-0.64484 0.6603,-1.35378 -0.89601,-1.86017 -2.55282,-2.38032 -4.39885,-1.38095 -0.89219,0.483 -1.20614,0.828 -1.26706,1.39242 -0.19502,1.80671 2.87262,2.62934 5.00561,1.34231 z m 10.34128,1.11206 c -0.64059,-0.35252 -1.34985,-0.9499 -1.57617,-1.32752 -0.39929,-0.66627 -0.392,-0.68193 0.24613,-0.5294 0.36168,0.0865 1.25686,0.4404 1.98928,0.78653 1.18276,0.55895 1.46189,0.59166 2.49626,0.29262 1.6361,-0.47296 2.6739,-1.65747 2.66872,-3.04596 -0.008,-2.11158 -0.77645,-2.5137 -4.69484,-2.45634 l -2.97421,0.0435 -0.83605,-1.02228 c -0.72013,-0.88053 -0.81654,-1.17833 -0.69543,-2.14785 0.29371,-2.35087 2.56382,-3.77098 5.72182,-3.57941 2.12514,0.12891 2.9521,0.68689 2.9521,1.99183 0,0.99127 -0.1104,1.00104 -1.10981,0.0982 -0.99026,-0.89456 -1.77689,-1.1095 -3.21393,-0.87814 -1.70581,0.27463 -2.77875,1.09075 -2.98489,2.27046 -0.0953,0.54567 -0.0948,1.12863 7.3e-4,1.29547 0.10689,0.18578 1.3443,0.30334 3.19299,0.30334 1.66014,0 3.35455,0.13673 3.76537,0.30384 2.46884,1.00425 2.97395,4.26541 0.99045,6.39485 -1.77086,1.90119 -3.89305,2.33219 -5.93912,1.20621 z m 12.0783,0.38145 c -0.18547,-0.32216 -0.662,-13.19078 -0.49936,-13.4851 0.065,-0.11749 0.29266,-0.21364 0.50609,-0.21364 0.44952,0 0.80187,0.81191 1.04538,2.40876 l 0.17182,1.12691 0.45666,-1.4482 c 0.59992,-1.90249 1.19841,-2.84713 2.23291,-3.52432 1.60635,-1.05153 3.53188,-0.55518 4.80657,1.23902 1.10768,1.55907 1.51192,3.94897 1.56541,9.25478 0.0471,4.67359 0.0377,4.76041 -0.52345,4.84627 -0.56351,0.0863 -0.57312,0.0149 -0.6917,-5.12752 -0.13151,-5.70301 -0.35023,-6.87103 -1.56484,-8.35619 -2.69993,-3.30134 -5.70758,1.82307 -6.23249,10.61888 -0.15191,2.54544 -0.23513,2.91983 -0.64895,2.91983 -0.26108,0 -0.5419,-0.11676 -0.62405,-0.25948 z m 15.14193,-1.80576 c -0.08,-1.13588 -0.20776,-4.27649 -0.28384,-6.97911 -0.13006,-4.62012 -0.10939,-4.91387 0.34564,-4.91387 0.60222,0 1.0998,1.123 1.0998,2.48221 0,1.28606 0.21496,1.07124 0.84254,-0.84199 0.26972,-0.82227 0.90888,-1.9443 1.42037,-2.49343 0.83387,-0.89523 1.07829,-0.99839 2.36543,-0.99839 1.75951,0 2.68679,0.64068 3.52589,2.43613 0.88172,1.88668 1.13251,3.84754 1.13251,8.85479 0,4.49632 -0.003,4.5189 -0.597,4.51909 -0.59538,1.9e-4 -0.59675,-0.0108 -0.50429,-4.03248 0.12947,-5.63146 -0.55767,-8.86101 -2.13823,-10.04953 -2.67159,-2.00897 -5.32282,3.04627 -5.70454,10.87713 -0.15067,3.09088 -0.17757,3.20469 -0.75748,3.20469 -0.55613,0 -0.6122,-0.15503 -0.7468,-2.06524 z m -69.77149,1.59047 c -0.0973,-0.10444 -0.1769,-0.43862 -0.1769,-0.74262 0,-0.38861 0.12549,-0.50101 0.42266,-0.3786 1.70399,0.702 3.88809,0.29896 4.96831,-0.91683 1.96557,-2.21224 1.58481,-5.9695 -0.74759,-7.37714 -1.37358,-0.82899 -2.03346,-0.81358 -3.01194,0.0703 -1.06112,0.95857 -1.54087,2.50283 -1.92232,6.18763 -0.26609,2.57026 -0.3901,3.06226 -0.771997,3.06226 -0.498994,0 -0.585171,-1.294 -0.962777,-14.45673 -0.172089,-5.99807 -0.16864,-6.05331 0.377434,-6.05331 0.303103,0 0.613753,0.22433 0.690313,0.4985 0.0766,0.27419 0.277407,2.67771 0.446287,5.34117 0.16893,2.66346 0.32969,4.87089 0.35726,4.9054 0.0276,0.0346 0.47961,-0.26531 1.0045,-0.66625 2.07048,-1.58156 4.91156,-0.58971 6.21644,2.17024 1.69863,3.59273 0.66456,7.15002 -2.3586,8.11388 -1.37415,0.4381 -4.20749,0.58946 -4.53108,0.24206 z m 16.53926,-19.18068 v -0.85459 h 7.96007 7.96007 v 0.85459 0.85457 h -7.96007 -7.96007 z m 41.92305,-0.4273 v -0.71215 h 7.96007 7.96007 v 0.71215 0.71215 h -7.96007 -7.96007 z"
         style="display:inline;fill:#ffffff;fill-opacity:1;stroke-width:0.27492544" />
    </g>
    <g
       inkscape:groupmode="layer"
       id="g7063"
       inkscape:label="Tag Text"
       style="display:inline">
      <path
         inkscape:connector-curvature="0"
         id="path7061"
         d="m 134.61586,137.36923 c -0.0705,-2.36419 -0.18759,-3.219 -0.46329,-3.37991 -0.59591,-0.3478 0.8082,-1.51416 1.82282,-1.51416 0.87517,0 2.11457,0.93777 2.11457,1.59995 0,0.81598 -0.66179,1.66552 -1.60305,2.05784 -1.05088,0.43798 -1.30037,0.97246 -1.30855,2.80321 -0.002,0.49785 -0.1085,1.06097 -0.23616,1.25139 -0.14276,0.21298 -0.26837,-0.87172 -0.32634,-2.81832 z m 2.48289,-2.08066 c 0.97664,-0.83145 0.16842,-2.31401 -1.26149,-2.31401 -0.89207,0 -1.12938,0.41866 -0.89251,1.57451 0.11804,0.57605 0.21982,1.14381 0.22615,1.2617 0.0166,0.31058 1.38501,-0.0601 1.92785,-0.5222 z m -64.508231,0.88216 c -0.174449,-0.1648 -0.317189,-0.84409 -0.317189,-1.50954 0,-0.96349 0.137075,-1.33942 0.672969,-1.84566 0.616725,-0.58261 0.721643,-0.60525 1.255538,-0.27094 0.987221,0.61817 0.86585,1.09242 -0.325641,1.27241 -0.848036,0.12811 -1.099241,0.28846 -1.23146,0.78614 -0.226638,0.85304 0.298257,1.36783 1.39467,1.36783 0.538262,0 0.841803,0.10173 0.744998,0.2497 -0.228106,0.34867 -1.810042,0.31265 -2.193885,-0.05 z m 1.59916,-3.07133 c -0.0975,-0.36859 -0.928169,-0.30349 -1.064705,0.0834 -0.08062,0.2284 0.07873,0.3069 0.506623,0.24972 0.343292,-0.046 0.594427,-0.19582 0.558082,-0.33316 z m 2.048509,3.15249 c 0,-0.12018 0.317828,-0.2185 0.706277,-0.2185 1.216665,0 1.84207,-1.3649 0.992954,-2.16703 -0.885141,-0.83619 -1.527241,-0.36582 -1.850433,1.3555 -0.205129,1.09248 -0.216087,1.10286 -0.395102,0.37456 -0.293801,-1.19537 -0.280275,-5.11886 0.01768,-5.11886 0.147015,0 0.264319,0.66879 0.264319,1.50698 0,1.43892 0.02426,1.49469 0.538642,1.23468 0.776378,-0.39252 1.571248,-0.0629 1.961264,0.81337 0.411647,0.92489 0.259995,1.58317 -0.477071,2.07088 -0.605556,0.40069 -1.758503,0.49799 -1.758503,0.14842 z m 7.543649,-0.11799 c -0.435253,-0.30067 -0.366947,-0.33389 0.641641,-0.31212 0.813282,0.0175 1.212332,-0.0998 1.427797,-0.41974 0.391226,-0.58096 -0.141357,-0.92022 -1.452769,-0.92545 -1.185804,-0.005 -1.71171,-0.50423 -1.298609,-1.23342 0.437515,-0.77228 2.329619,-1.06238 2.566336,-0.39346 0.04963,0.14027 -0.401598,0.24969 -1.029599,0.24969 -0.853771,0 -1.139543,0.10329 -1.209232,0.43699 -0.07552,0.36163 0.105782,0.43763 1.051521,0.44081 1.815523,0.006 2.421763,0.75233 1.505288,1.85299 -0.586399,0.70424 -1.450112,0.82335 -2.202374,0.30371 z m 3.52423,-0.0765 c -0.490741,-0.55875 -0.415077,-2.40509 0.130849,-3.19218 0.927798,-1.33766 2.546109,-0.46066 2.546109,1.37977 0,1.70628 -1.737165,2.88241 -2.676958,1.81241 z m 2.138553,-1.06295 c 0.459757,-1.04853 0.05219,-2.14469 -0.797439,-2.14469 -1.127462,0 -1.771242,2.148 -0.892549,2.97808 0.544454,0.51434 1.25205,0.16541 1.689988,-0.83339 z m 1.529605,1.33093 c -0.109029,-0.10334 -0.19823,-1.76475 -0.19823,-3.69203 0,-2.40265 0.08554,-3.42332 0.272075,-3.2471 0.167726,0.15843 0.243755,1.57452 0.198244,3.69202 -0.04069,1.88926 -0.16304,3.35046 -0.272089,3.24711 z m 1.808191,-0.41679 c -0.211578,-0.309 -0.452208,-0.87082 -0.534743,-1.24849 -0.08256,-0.37767 -0.211796,-0.96759 -0.287263,-1.31092 -0.0986,-0.4488 -0.02438,-0.62427 0.264337,-0.62427 0.265231,0 0.401508,0.2416 0.401508,0.71185 0,1.14505 0.525233,2.28456 1.053041,2.28456 0.547941,0 1.325882,-1.37733 1.325882,-2.34746 0,-0.7335 0.423104,-0.87646 0.627295,-0.21196 0.320387,1.04268 0.477335,3.30854 0.229169,3.30854 -0.143955,0 -0.335147,-0.34678 -0.424889,-0.77059 l -0.16314,-0.77057 -0.686358,0.77057 c -0.81538,0.91542 -1.283893,0.9696 -1.804839,0.20875 z m 5.183177,0.26219 c -0.174444,-0.16481 -0.317185,-0.9322 -0.317185,-1.7053 0,-1.23616 -0.06245,-1.40328 -0.517823,-1.38584 -0.728222,0.0279 -0.69729,-0.45155 0.03966,-0.61466 0.369661,-0.0819 0.643643,-0.35258 0.694809,-0.68668 0.11584,-0.75654 0.57634,-0.69848 0.57634,0.0726 0,0.45778 0.140965,0.62425 0.528638,0.62425 0.290758,0 0.528651,0.11235 0.528651,0.24969 0,0.13734 -0.235626,0.2497 -0.523617,0.2497 -0.603653,0 -0.880691,0.74684 -0.751408,2.0255 0.0722,0.71462 0.19919,0.85839 0.816941,0.92549 0.402246,0.0437 0.662854,0.18413 0.579124,0.31211 -0.216638,0.33114 -1.278201,0.28819 -1.654121,-0.0669 z m 2.802907,-1.38583 c -0.0934,-1.62518 -0.0607,-2.01115 0.15141,-1.78953 0.25748,0.26892 0.44967,3.47501 0.20831,3.47501 -0.14455,0 -0.30642,-0.75847 -0.35972,-1.68548 z m 1.33971,1.27245 c -0.49076,-0.55875 -0.41507,-2.40509 0.13085,-3.19218 0.92779,-1.33766 2.5461,-0.46066 2.5461,1.37977 0,1.70628 -1.73716,2.88241 -2.67695,1.81241 z m 2.13856,-1.06295 c 0.45975,-1.04853 0.0522,-2.14469 -0.79745,-2.14469 -1.12746,0 -1.77125,2.148 -0.89255,2.97808 0.54446,0.51434 1.25206,0.16541 1.69,-0.83339 z m 1.06704,-0.55221 c 0,-1.62875 0.0673,-1.97547 0.3413,-1.7606 0.25344,0.1987 0.42412,0.14229 0.66304,-0.21912 0.44004,-0.66562 1.53563,-0.62445 1.99829,0.0751 0.43694,0.66064 0.74352,3.20936 0.44156,3.67091 -0.11944,0.18255 -0.25478,-0.4423 -0.31542,-1.4563 -0.0744,-1.24498 -0.24228,-1.90456 -0.56125,-2.20588 -0.43048,-0.40666 -0.48435,-0.40213 -0.9991,0.0841 -0.34491,0.32585 -0.65443,1.12267 -0.84561,2.17695 -0.16585,0.91464 -0.39632,1.66298 -0.51217,1.66298 -0.11585,0 -0.21064,-0.91266 -0.21064,-2.02818 z m 4.87444,1.66505 c -0.47047,-0.33299 -0.42746,-0.35051 0.51776,-0.21097 0.81525,0.12038 1.10455,0.0571 1.38322,-0.30304 0.50569,-0.65332 -0.005,-1.12046 -1.22462,-1.12046 -1.65941,0 -2.11072,-1.16925 -0.68771,-1.78175 0.66354,-0.2856 2.00932,-0.11988 2.00932,0.24742 0,0.11225 -0.50183,0.19438 -1.11521,0.18253 -0.8615,-0.0167 -1.1365,0.0779 -1.20883,0.41542 -0.0778,0.36303 0.10198,0.43697 1.06235,0.43697 0.63578,0 1.29871,0.13485 1.47316,0.29965 0.50468,0.47675 0.36883,1.38578 -0.27028,1.80865 -0.7329,0.48496 -1.27991,0.49218 -1.93916,0.0255 z m 6.94028,-0.13627 c -0.27425,-0.96585 -0.21644,-3.49581 0.0798,-3.49581 0.14538,0 0.26909,0.19665 0.27491,0.43698 0.008,0.31156 0.12377,0.23988 0.40494,-0.2497 0.49579,-0.86335 1.78755,-0.96422 2.23492,-0.17455 0.43299,0.76429 0.67175,3.9825 0.29546,3.9825 -0.19576,0 -0.30267,-0.56354 -0.30267,-1.59541 0,-1.23243 -0.12027,-1.7295 -0.52864,-2.18488 l -0.52866,-0.58948 -0.52021,0.57965 c -0.28611,0.3188 -0.59514,0.99298 -0.68673,1.4982 -0.0916,0.50521 -0.25191,1.25565 -0.35624,1.66765 l -0.1897,0.74912 z m 4.27532,0.0864 c -0.49075,-0.55876 -0.41507,-2.4051 0.13085,-3.19218 0.9278,-1.33767 2.5461,-0.46067 2.5461,1.37977 0,1.70628 -1.73716,2.88239 -2.67695,1.81241 z m 2.13856,-1.06296 c 0.45975,-1.04853 0.0522,-2.14469 -0.79744,-2.14469 -1.12747,0 -1.77124,2.14801 -0.89256,2.97807 0.54446,0.51435 1.25206,0.16542 1.69,-0.83338 z m 15.34983,0.99299 c -0.6102,-1.07707 -0.0523,-3.25159 0.92522,-3.60592 0.59702,-0.21643 1.4444,0.27027 1.4444,0.82964 0,0.35324 -0.26397,0.51079 -1.07174,0.63969 -1.04421,0.16668 -1.06965,0.19448 -0.9912,1.0832 0.0758,0.85878 0.1388,0.91667 1.07726,0.98993 1.21706,0.095 1.0435,0.54646 -0.21008,0.54646 -0.61953,0 -0.98556,-0.15062 -1.17386,-0.483 z m 1.78363,-2.97141 c 0.0789,-0.22635 -0.0772,-0.30638 -0.48724,-0.24969 -0.3319,0.0459 -0.65577,0.23334 -0.7197,0.41656 -0.079,0.22636 0.0772,0.30639 0.48725,0.24971 0.33189,-0.0459 0.65576,-0.23336 0.71969,-0.41658 z m 1.36057,3.05891 c -0.52539,-0.59802 0.0255,-1.21322 1.16853,-1.30507 0.89437,-0.0719 0.96444,-0.13628 0.96444,-0.88643 0,-1.06659 -0.40783,-1.43924 -1.24574,-1.13831 -0.48745,0.17508 -0.62267,0.1549 -0.54078,-0.0807 0.13226,-0.38048 1.49145,-0.56789 1.82608,-0.25177 0.44037,0.416 0.80619,3.32223 0.46681,3.70851 -0.42063,0.4788 -2.20554,0.44751 -2.63934,-0.0462 z m 1.85166,-0.0887 c 0.31449,-0.188 0.32028,-0.29425 0.0336,-0.62043 -0.19016,-0.21647 -0.49505,-0.39357 -0.67753,-0.39357 -0.18245,0 -0.48734,0.1771 -0.67752,0.39357 -0.28655,0.32618 -0.28078,0.43243 0.0336,0.62043 0.20871,0.12476 0.49842,0.22684 0.64381,0.22684 0.14538,0 0.43509,-0.10208 0.64381,-0.22684 z m 1.70876,-0.14298 c -0.77471,-1.11695 0.24198,-3.36804 1.52116,-3.36804 0.4938,0 0.91036,0.95203 0.67817,1.54991 -0.069,0.17756 -0.21242,0.0138 -0.3188,-0.36382 -0.23382,-0.83021 -0.7539,-0.88248 -1.31056,-0.13173 -0.52759,0.71158 -0.52719,1.79706 7.3e-4,2.29587 0.36469,0.3445 0.51736,0.34804 1.32163,0.0305 0.95535,-0.37708 1.27774,-0.0888 0.39804,0.35592 -0.89572,0.45287 -1.82432,0.30339 -2.29046,-0.36867 z m 3.91266,0.31364 c -0.53166,-0.60515 -0.62283,-1.60842 -0.22739,-2.50247 0.51509,-1.16458 1.22269,-1.53151 1.98315,-1.02833 0.86707,0.57373 0.6864,0.97725 -0.55385,1.23694 -0.97176,0.20349 -1.13515,0.33267 -1.21062,0.95726 -0.10349,0.8564 0.27666,1.14028 1.54103,1.15073 0.69544,0.005 0.8267,0.0678 0.52864,0.24971 -0.56213,0.34318 -1.73533,0.30685 -2.06096,-0.0638 z m 1.52491,-2.92296 c 0.33095,-0.19773 0.31801,-0.25821 -0.0867,-0.40488 -0.29322,-0.1063 -0.64158,-0.0157 -0.9083,0.23627 -0.40061,0.37846 -0.3942,0.40842 0.0866,0.40488 0.28558,-0.002 0.69431,-0.10844 0.9083,-0.23627 z m 5.39838,2.60742 c -0.81486,-1.17485 0.0784,-3.61584 1.32302,-3.61584 0.84491,0 1.25559,0.53902 1.41247,1.85392 0.11282,0.94556 0.0337,1.1971 -0.54911,1.74776 -0.86146,0.81381 -1.6283,0.81877 -2.18638,0.0141 z m 2.01609,-0.38031 c 0.42181,-0.74456 0.21497,-2.26003 -0.35297,-2.58599 -0.3893,-0.22345 -0.5751,-0.16448 -0.9912,0.3145 -0.49667,0.57173 -0.7133,2.25846 -0.33588,2.615 0.37568,0.35491 1.40342,0.14476 1.68005,-0.34351 z m 2.48456,-0.27067 c 0.17847,-1.27093 0.17494,-1.27919 -0.49459,-1.15828 -0.83392,0.15059 -0.88573,-0.2281 -0.0788,-0.57545 0.51344,-0.22099 0.5826,-0.4111 0.50118,-1.3779 -0.26252,-3.11833 1.3279,-4.82668 3.01224,-3.23554 0.92059,0.86969 0.80927,1.37368 -0.11805,0.53441 -0.42773,-0.38711 -0.98296,-0.65489 -1.25554,-0.60551 -0.61185,0.11085 -1.11487,1.44816 -1.13461,3.01644 -0.0139,1.10244 0.0317,1.18608 0.64591,1.18608 0.86716,0 0.84924,0.40058 -0.0272,0.60838 -0.62399,0.14795 -0.67186,0.2444 -0.5145,1.03678 0.19434,0.97869 -0.0108,1.85064 -0.4353,1.85064 -0.18477,0 -0.21918,-0.4371 -0.10083,-1.28005 z m 10.86753,-0.25779 c -0.2358,-2.07505 -0.36447,-2.45737 -0.82705,-2.45737 -0.43849,0 -0.86452,0.90292 -0.95494,2.02387 -0.0953,1.18163 -0.3924,1.08434 -0.543,-0.1778 -0.16987,-1.42373 -0.55995,-1.85879 -1.15909,-1.29278 -0.28859,0.2726 -0.43792,0.86689 -0.45217,1.79962 -0.0283,1.85655 -0.32494,1.77245 -0.50893,-0.14433 -0.13111,-1.36598 -0.0838,-1.58726 0.42585,-1.9893 0.70189,-0.55374 1.08004,-0.57894 1.58133,-0.10538 0.33697,0.31833 0.44315,0.30279 0.85282,-0.12485 0.52776,-0.55091 1.3955,-0.64735 1.58633,-0.17632 0.27642,0.68235 0.57625,3.82088 0.38384,4.01798 -0.11278,0.11553 -0.28604,-0.50247 -0.38499,-1.37334 z m 1.44809,-0.39735 c 0.003,-1.34163 0.0826,-1.8203 0.26027,-1.56061 0.34003,0.49701 0.34003,3.4958 0,3.4958 -0.15381,0 -0.26262,-0.80898 -0.26027,-1.93519 z m 1.05034,0.87396 c -0.002,-0.58367 -0.0766,-1.4826 -0.16674,-1.9976 -0.10871,-0.62125 -0.0632,-0.93638 0.13508,-0.93638 0.16439,0 0.30367,0.19663 0.30948,0.43698 0.008,0.31156 0.12377,0.23987 0.40492,-0.2497 0.45109,-0.78548 1.66707,-0.95032 2.23569,-0.30308 0.44697,0.50879 0.7021,4.11101 0.29113,4.11101 -0.19379,0 -0.29909,-0.6091 -0.29909,-1.73007 0,-1.66874 -0.36002,-2.51484 -1.07008,-2.51484 -0.51213,0 -1.09951,1.29942 -1.23758,2.73778 -0.16523,1.72117 -0.59843,2.04162 -0.60281,0.4459 z m 4.11881,0.66884 c -0.529,-0.49973 -0.53059,-1.33867 -0.004,-2.04905 0.44766,-0.60375 1.4099,-0.73207 1.91458,-0.25531 0.2467,0.23303 0.31718,-0.2419 0.31718,-2.13721 0,-1.34026 0.0892,-2.38463 0.19825,-2.32083 0.35556,0.20806 0.40494,6.39454 0.0543,6.79376 -0.42181,0.48012 -1.95947,0.46069 -2.48033,-0.0314 z m 1.98516,-0.10701 c 0.42138,0 0.26292,-1.1696 -0.23756,-1.75348 -0.40892,-0.47705 -0.56602,-0.51695 -1.05729,-0.26858 -1.10965,0.56102 -0.46512,2.53123 0.70013,2.1402 0.19361,-0.0649 0.46124,-0.11814 0.59472,-0.11814 z m 1.30001,0.12485 c 0,-0.206 0.17842,-0.37455 0.39648,-0.37455 0.21807,0 0.39649,0.16855 0.39649,0.37455 0,0.206 -0.17842,0.37455 -0.39649,0.37455 -0.21806,0 -0.39648,-0.16855 -0.39648,-0.37455 z m -114.187898,-0.0149 c 0,-0.0768 -0.297359,-1.38414 -0.660813,-2.9051 -0.72131,-3.01862 -0.775118,-3.44739 -0.432654,-3.44739 0.125487,0 0.434573,0.9832 0.686865,2.18487 0.567722,2.70411 0.690712,2.90203 1.050519,1.69054 0.157446,-0.53011 0.405702,-1.00144 0.551679,-1.04741 0.145967,-0.0459 0.654267,0.5306 1.12955,1.28126 0.475284,0.75067 0.964313,1.42333 1.086734,1.49479 0.122419,0.0714 0.222571,-1.05625 0.222571,-2.50608 0,-1.61969 0.114658,-2.74434 0.297368,-2.91694 0.337988,-0.31929 0.423264,3.12647 0.127775,5.16299 l -0.169583,1.16882 -0.639882,-0.56789 c -0.351935,-0.31232 -0.880047,-0.93498 -1.173589,-1.38366 -0.29354,-0.44868 -0.623957,-0.81579 -0.734259,-0.81579 -0.110301,0 -0.357489,0.61801 -0.54931,1.37336 -0.191812,0.75534 -0.4487,1.37335 -0.57086,1.37335 -0.12216,0 -0.222111,-0.0629 -0.222111,-0.13972 z m 58.604108,-0.60938 c -1.20984,-2.57983 -1.51022,-3.32928 -1.38268,-3.44977 0.0774,-0.0731 0.46533,0.56079 0.86203,1.4087 0.3967,0.84791 0.80268,1.54167 0.90218,1.54167 0.0995,0 0.25898,-0.3358 0.35441,-0.74623 0.25755,-1.10782 0.52025,-1.10297 1.30982,0.0241 0.39208,0.55969 0.79316,0.9419 0.89131,0.84934 0.0981,-0.0926 0.24952,-0.86135 0.33637,-1.70839 0.15371,-1.49885 0.15903,-1.48157 0.19824,0.64477 0.0222,1.20169 -0.0645,2.18488 -0.19264,2.18488 -0.12812,0 -0.55048,-0.39328 -0.93858,-0.87395 -0.38811,-0.48066 -0.80239,-0.87395 -0.92064,-0.87395 -0.11825,0 -0.39387,0.42136 -0.61248,0.93638 l -0.39749,0.93637 z m -25.9515,-3.98204 c -0.232397,-0.35522 0.064,-0.76226 0.555,-0.76226 0.23159,0 0.36427,0.17542 0.31482,0.41627 -0.10296,0.50152 -0.63073,0.71145 -0.86982,0.34599 z m 72.54828,-0.26287 c 0,-0.47984 0.51692,-0.67695 0.87879,-0.3351 0.20009,0.18902 -0.30021,0.8345 -0.64683,0.8345 -0.12757,0 -0.23196,-0.22473 -0.23196,-0.4994 z"
         style="display:inline;fill:#ffffff;fill-opacity:1;stroke-width:0.25690815" />
    </g>
    <g
       inkscape:groupmode="layer"
       id="g7067"
       inkscape:label="Sun"
       style="display:inline">
      <path
         inkscape:connector-curvature="0"
         id="path7065"
         d="m 40.459483,116.01846 0.04266,-2.42602 0.65982,-0.0459 0.659821,-0.0459 v 2.47194 2.47192 H 41.119298 40.41682 Z m -6.595521,0.49804 c -0.235462,-0.14515 -0.470074,-0.30426 -0.521346,-0.35357 -0.05129,-0.0493 0.448797,-1.03035 1.11128,-2.18008 l 1.204502,-2.09045 0.603156,0.2959 c 0.331728,0.16274 0.575869,0.3437 0.542539,0.40213 -0.696352,1.22074 -2.463251,4.20895 -2.483941,4.20091 -0.01543,-0.006 -0.220729,-0.12968 -0.45619,-0.27484 z m 13.14805,-1.61774 c -0.575165,-0.96481 -1.145225,-1.90137 -1.266806,-2.08127 -0.208775,-0.30891 -0.186507,-0.34401 0.400851,-0.63217 l 0.621903,-0.3051 1.256409,2.10935 c 0.691026,1.16012 1.237385,2.12467 1.214137,2.14343 -0.09366,0.0756 -1.040949,0.51996 -1.108364,0.51996 -0.03978,0 -0.542963,-0.7894 -1.11813,-1.7542 z m -7.890358,-3.10112 c -2.019055,-0.5331 -3.972655,-1.93238 -4.960137,-3.55272 -3.251581,-5.33548 0.715053,-11.961513 7.143678,-11.933083 4.465718,0.01977 8.123914,3.565897 8.123914,7.875103 0,4.35686 -3.670283,7.8685 -8.17808,7.82458 -0.75344,-0.007 -1.711659,-0.10359 -2.129375,-0.21388 z m -10.977073,-0.91592 c -0.188097,-0.29266 -0.275164,-0.57468 -0.198688,-0.64355 0.233919,-0.2107 4.127634,-2.56198 4.162912,-2.51384 0.01842,0.0251 0.181578,0.28292 0.362617,0.57288 l 0.329152,0.52723 -2.160591,1.28911 -2.160586,1.28913 z m 23.435369,-0.62022 -2.118586,-1.14591 0.298482,-0.56262 0.298482,-0.56262 0.500464,0.24457 c 0.451319,0.22056 3.851988,2.00593 3.961118,2.07961 0.07836,0.0528 -0.614316,1.11364 -0.720276,1.10302 -0.05563,-0.005 -1.05447,-0.5258 -2.219684,-1.15605 z m -0.59832,-6.37314 v -0.67183 h 2.561647 2.561654 v 0.67183 0.67181 H 53.543277 50.98163 Z m -24.685005,-0.0747 v -0.59717 h 2.561648 2.561654 v 0.59717 0.59718 h -2.561654 -2.561648 z m 23.282687,-4.412012 c -0.187476,-0.291711 -0.315434,-0.551498 -0.284352,-0.577311 0.178897,-0.148514 4.219013,-2.326064 4.315666,-2.326064 0.144906,0 0.721785,1.010569 0.624474,1.093936 -0.105374,0.09028 -4.204972,2.339817 -4.264119,2.339817 -0.02793,0 -0.204181,-0.238678 -0.391669,-0.530378 z M 30.517246,98.452032 c -1.0515,-0.559594 -1.983032,-1.085919 -2.070064,-1.169618 -0.107497,-0.103365 -0.06695,-0.322055 0.126422,-0.681878 l 0.284669,-0.52971 2.021279,1.072186 c 1.111704,0.5897 2.104866,1.125111 2.207024,1.189801 0.140621,0.08907 0.123476,0.243177 -0.07059,0.634493 -0.140972,0.284282 -0.330707,0.513573 -0.421629,0.509529 -0.09091,-0.0045 -1.025623,-0.465208 -2.077124,-1.024803 z m 15.489141,-2.424351 c -0.294909,-0.170657 -0.554383,-0.325628 -0.57661,-0.344367 -0.0889,-0.075 2.339509,-4.111694 2.473517,-4.111694 0.185785,0 1.06006,0.433677 1.06006,0.525827 0,0.05184 -2.255591,4.010762 -2.397915,4.208726 -0.01257,0.01746 -0.26415,-0.107835 -0.559052,-0.278492 z M 34.855335,94.026817 c -0.714872,-1.11136 -1.273778,-2.039406 -1.242014,-2.062332 0.03174,-0.02289 0.278778,-0.188319 0.548912,-0.367543 l 0.491162,-0.325877 1.2479,1.910744 c 0.686342,1.050899 1.286321,2.008694 1.333288,2.128412 0.07543,0.192291 -0.652362,0.743352 -0.975629,0.738721 -0.05716,-8.33e-4 -0.688749,-0.910775 -1.403619,-2.022125 z m 5.724433,-1.634079 v -2.463347 h 0.621009 0.621006 v 2.463347 2.463346 h -0.621006 -0.621009 z"
         style="display:inline;fill:#ffffff;fill-opacity:1;stroke-width:0.15224345" />
    </g>
    <g
       inkscape:groupmode="layer"
       id="g7071"
       inkscape:label="Buddha"
       style="display:inline">
      <path
         inkscape:connector-curvature="0"
         id="path7069"
         d="m 26.929186,137.7447 c -2.173173,-0.47718 -4.572555,-2.5065 -5.078234,-4.295 -0.157619,-0.55744 -0.147542,-0.82677 0.05362,-1.43311 l 0.247687,-0.74668 h -0.45583 c -0.561008,0 -1.779219,-0.75716 -2.04378,-1.27029 -0.167571,-0.325 -0.149006,-0.40939 0.13078,-0.59432 0.256144,-0.1693 0.620242,-0.19456 1.69745,-0.11776 1.339255,0.0955 1.399695,0.0854 2.581494,-0.43061 0.665573,-0.29061 1.71208,-0.92872 2.325567,-1.41802 1.47013,-1.17252 3.718559,-3.65574 3.945922,-4.35797 0.09915,-0.30624 0.255123,-1.7474 0.346612,-3.20259 0.250555,-3.98527 0.451074,-5.86317 0.671754,-6.29119 0.407124,-0.7896 1.789605,-1.3814 4.891684,-2.09402 2.258979,-0.51895 2.744507,-0.85651 2.744507,-1.90814 0,-0.52316 -0.101662,-0.79505 -0.423783,-1.13335 -1.466647,-1.54027 -2.006462,-4.28163 -1.144226,-5.81068 0.411023,-0.72888 1.535325,-1.65054 2.01343,-1.65054 0.15606,0 0.187065,-0.1708 0.115165,-0.63435 -0.08284,-0.534057 -0.0342,-0.700295 0.307669,-1.051495 0.331694,-0.340777 0.573757,-0.429454 1.321866,-0.484276 1.180385,-0.08648 1.868218,0.207549 2.130925,0.910953 0.137552,0.368328 0.14052,0.592178 0.01069,0.806588 -0.157562,0.26015 -0.102408,0.33196 0.447206,0.58226 1.376259,0.62678 2.21005,1.84963 2.204248,3.23278 -0.0057,1.38283 -0.776815,3.31275 -1.683074,4.21282 -0.16579,0.16466 -0.315242,0.42924 -0.332114,0.58795 -0.145625,1.36987 0.342471,1.78262 2.766541,2.33948 3.079661,0.70746 4.484907,1.30508 4.882644,2.07648 0.213645,0.41436 0.443969,2.5729 0.681006,6.38223 0.08804,1.41477 0.242551,2.82285 0.343369,3.12909 0.231682,0.70375 2.484751,3.19019 3.948953,4.35797 0.613489,0.4893 1.659993,1.12741 2.325566,1.41802 1.181807,0.51604 1.242239,0.52612 2.581495,0.43061 1.077209,-0.0768 1.441313,-0.0515 1.697449,0.11775 0.279787,0.18494 0.298357,0.26933 0.13078,0.59433 -0.264956,0.51389 -1.483093,1.27029 -2.045715,1.27029 h -0.457768 l 0.244205,0.6982 c 0.47124,1.34731 -0.156982,2.65484 -2.039059,4.24392 -1.741688,1.47053 -3.569019,1.88568 -6.803904,1.54577 -3.088619,-0.32453 -6.882825,-0.74727 -8.732536,-0.97292 -1.941585,-0.23688 -2.223917,-0.22884 -5.322684,0.15153 -6.826271,0.83796 -10.039083,1.06924 -11.227547,0.80829 z m 6.641149,-7.49447 c 0.599027,-0.4399 1.551277,-2.62512 1.838439,-4.21883 0.137489,-0.76307 -0.217725,-8.05424 -0.413259,-8.48257 -0.123426,-0.27035 -0.145976,-0.2416 -0.155394,0.1982 -0.0063,0.28296 -0.235931,1.86548 -0.510826,3.51674 -0.579388,3.4802 -0.608283,3.53992 -2.648542,5.4744 -1.421812,1.34809 -2.958751,2.49416 -4.126531,3.07709 -0.388105,0.19374 -0.706215,0.39805 -0.70692,0.45403 -0.0019,0.16251 1.226473,0.22812 3.923962,0.20951 1.916721,-0.0131 2.579529,-0.0673 2.799071,-0.22857 z m 22.510862,0.0669 c 0.06752,-0.064 0.04665,-0.14077 -0.0464,-0.17059 -1.290344,-0.41344 -5.560485,-3.86448 -6.459936,-5.22076 -0.379428,-0.57214 -0.529484,-1.15613 -0.943623,-3.67231 -0.270848,-1.64557 -0.497644,-3.22347 -0.503999,-3.50642 -0.0098,-0.43613 -0.03331,-0.4668 -0.154571,-0.20146 -0.196934,0.43101 -0.553833,7.60472 -0.419292,8.42774 0.243399,1.48899 1.227963,3.8304 1.776333,4.22434 0.121494,0.0873 0.370596,0.19557 0.553562,0.24062 0.496526,0.12232 6.055699,0.0136 6.197924,-0.12116 z"
         style="display:inline;fill:#ffffff;fill-opacity:1;fill-rule:nonzero;stroke-width:0.15636195" />
    </g>
  </g>
  <g
     inkscape:label="Sunshine "
     inkscape:groupmode="layer"
     id="layer1"
     style="display:inline"
     transform="translate(-17.428895,-86.754389)">
    <g
       inkscape:groupmode="layer"
       id="layer3"
       inkscape:label="Sun"
       style="display:inline">
      <path
         inkscape:connector-curvature="0"
         id="path6262"
         d="m 40.459483,116.01846 0.04266,-2.42602 0.65982,-0.0459 0.659821,-0.0459 v 2.47194 2.47192 H 41.119298 40.41682 Z m -6.595521,0.49804 c -0.235462,-0.14515 -0.470074,-0.30426 -0.521346,-0.35357 -0.05129,-0.0493 0.448797,-1.03035 1.11128,-2.18008 l 1.204502,-2.09045 0.603156,0.2959 c 0.331728,0.16274 0.575869,0.3437 0.542539,0.40213 -0.696352,1.22074 -2.463251,4.20895 -2.483941,4.20091 -0.01543,-0.006 -0.220729,-0.12968 -0.45619,-0.27484 z m 13.14805,-1.61774 c -0.575165,-0.96481 -1.145225,-1.90137 -1.266806,-2.08127 -0.208775,-0.30891 -0.186507,-0.34401 0.400851,-0.63217 l 0.621903,-0.3051 1.256409,2.10935 c 0.691026,1.16012 1.237385,2.12467 1.214137,2.14343 -0.09366,0.0756 -1.040949,0.51996 -1.108364,0.51996 -0.03978,0 -0.542963,-0.7894 -1.11813,-1.7542 z m -7.890358,-3.10112 c -2.019055,-0.5331 -3.972655,-1.93238 -4.960137,-3.55272 -3.251581,-5.33548 0.715053,-11.961513 7.143678,-11.933083 4.465718,0.01977 8.123914,3.565897 8.123914,7.875103 0,4.35686 -3.670283,7.8685 -8.17808,7.82458 -0.75344,-0.007 -1.711659,-0.10359 -2.129375,-0.21388 z m -10.977073,-0.91592 c -0.188097,-0.29266 -0.275164,-0.57468 -0.198688,-0.64355 0.233919,-0.2107 4.127634,-2.56198 4.162912,-2.51384 0.01842,0.0251 0.181578,0.28292 0.362617,0.57288 l 0.329152,0.52723 -2.160591,1.28911 -2.160586,1.28913 z m 23.435369,-0.62022 -2.118586,-1.14591 0.298482,-0.56262 0.298482,-0.56262 0.500464,0.24457 c 0.451319,0.22056 3.851988,2.00593 3.961118,2.07961 0.07836,0.0528 -0.614316,1.11364 -0.720276,1.10302 -0.05563,-0.005 -1.05447,-0.5258 -2.219684,-1.15605 z m -0.59832,-6.37314 v -0.67183 h 2.561647 2.561654 v 0.67183 0.67181 H 53.543277 50.98163 Z m -24.685005,-0.0747 v -0.59717 h 2.561648 2.561654 v 0.59717 0.59718 h -2.561654 -2.561648 z m 23.282687,-4.412012 c -0.187476,-0.291711 -0.315434,-0.551498 -0.284352,-0.577311 0.178897,-0.148514 4.219013,-2.326064 4.315666,-2.326064 0.144906,0 0.721785,1.010569 0.624474,1.093936 -0.105374,0.09028 -4.204972,2.339817 -4.264119,2.339817 -0.02793,0 -0.204181,-0.238678 -0.391669,-0.530378 z M 30.517246,98.452032 c -1.0515,-0.559594 -1.983032,-1.085919 -2.070064,-1.169618 -0.107497,-0.103365 -0.06695,-0.322055 0.126422,-0.681878 l 0.284669,-0.52971 2.021279,1.072186 c 1.111704,0.5897 2.104866,1.125111 2.207024,1.189801 0.140621,0.08907 0.123476,0.243177 -0.07059,0.634493 -0.140972,0.284282 -0.330707,0.513573 -0.421629,0.509529 -0.09091,-0.0045 -1.025623,-0.465208 -2.077124,-1.024803 z m 15.489141,-2.424351 c -0.294909,-0.170657 -0.554383,-0.325628 -0.57661,-0.344367 -0.0889,-0.075 2.339509,-4.111694 2.473517,-4.111694 0.185785,0 1.06006,0.433677 1.06006,0.525827 0,0.05184 -2.255591,4.010762 -2.397915,4.208726 -0.01257,0.01746 -0.26415,-0.107835 -0.559052,-0.278492 z M 34.855335,94.026817 c -0.714872,-1.11136 -1.273778,-2.039406 -1.242014,-2.062332 0.03174,-0.02289 0.278778,-0.188319 0.548912,-0.367543 l 0.491162,-0.325877 1.2479,1.910744 c 0.686342,1.050899 1.286321,2.008694 1.333288,2.128412 0.07543,0.192291 -0.652362,0.743352 -0.975629,0.738721 -0.05716,-8.33e-4 -0.688749,-0.910775 -1.403619,-2.022125 z m 5.724433,-1.634079 v -2.463347 h 0.621009 0.621006 v 2.463347 2.463346 h -0.621006 -0.621009 z"
         style="display:inline;fill:#f1e274;fill-opacity:1;stroke-width:0.15224345" />
    </g>
    <g
       inkscape:groupmode="layer"
       id="layer2"
       inkscape:label="Buddha"
       style="display:inline">
      <path
         inkscape:connector-curvature="0"
         id="path3832"
         d="m 26.929186,137.7447 c -2.173173,-0.47718 -4.572555,-2.5065 -5.078234,-4.295 -0.157619,-0.55744 -0.147542,-0.82677 0.05362,-1.43311 l 0.247687,-0.74668 h -0.45583 c -0.561008,0 -1.779219,-0.75716 -2.04378,-1.27029 -0.167571,-0.325 -0.149006,-0.40939 0.13078,-0.59432 0.256144,-0.1693 0.620242,-0.19456 1.69745,-0.11776 1.339255,0.0955 1.399695,0.0854 2.581494,-0.43061 0.665573,-0.29061 1.71208,-0.92872 2.325567,-1.41802 1.47013,-1.17252 3.718559,-3.65574 3.945922,-4.35797 0.09915,-0.30624 0.255123,-1.7474 0.346612,-3.20259 0.250555,-3.98527 0.451074,-5.86317 0.671754,-6.29119 0.407124,-0.7896 1.789605,-1.3814 4.891684,-2.09402 2.258979,-0.51895 2.744507,-0.85651 2.744507,-1.90814 0,-0.52316 -0.101662,-0.79505 -0.423783,-1.13335 -1.466647,-1.54027 -2.006462,-4.28163 -1.144226,-5.81068 0.411023,-0.72888 1.535325,-1.65054 2.01343,-1.65054 0.15606,0 0.187065,-0.1708 0.115165,-0.63435 -0.08284,-0.534057 -0.0342,-0.700295 0.307669,-1.051495 0.331694,-0.340777 0.573757,-0.429454 1.321866,-0.484276 1.180385,-0.08648 1.868218,0.207549 2.130925,0.910953 0.137552,0.368328 0.14052,0.592178 0.01069,0.806588 -0.157562,0.26015 -0.102408,0.33196 0.447206,0.58226 1.376259,0.62678 2.21005,1.84963 2.204248,3.23278 -0.0057,1.38283 -0.776815,3.31275 -1.683074,4.21282 -0.16579,0.16466 -0.315242,0.42924 -0.332114,0.58795 -0.145625,1.36987 0.342471,1.78262 2.766541,2.33948 3.079661,0.70746 4.484907,1.30508 4.882644,2.07648 0.213645,0.41436 0.443969,2.5729 0.681006,6.38223 0.08804,1.41477 0.242551,2.82285 0.343369,3.12909 0.231682,0.70375 2.484751,3.19019 3.948953,4.35797 0.613489,0.4893 1.659993,1.12741 2.325566,1.41802 1.181807,0.51604 1.242239,0.52612 2.581495,0.43061 1.077209,-0.0768 1.441313,-0.0515 1.697449,0.11775 0.279787,0.18494 0.298357,0.26933 0.13078,0.59433 -0.264956,0.51389 -1.483093,1.27029 -2.045715,1.27029 h -0.457768 l 0.244205,0.6982 c 0.47124,1.34731 -0.156982,2.65484 -2.039059,4.24392 -1.741688,1.47053 -3.569019,1.88568 -6.803904,1.54577 -3.088619,-0.32453 -6.882825,-0.74727 -8.732536,-0.97292 -1.941585,-0.23688 -2.223917,-0.22884 -5.322684,0.15153 -6.826271,0.83796 -10.039083,1.06924 -11.227547,0.80829 z m 6.641149,-7.49447 c 0.599027,-0.4399 1.551277,-2.62512 1.838439,-4.21883 0.137489,-0.76307 -0.217725,-8.05424 -0.413259,-8.48257 -0.123426,-0.27035 -0.145976,-0.2416 -0.155394,0.1982 -0.0063,0.28296 -0.235931,1.86548 -0.510826,3.51674 -0.579388,3.4802 -0.608283,3.53992 -2.648542,5.4744 -1.421812,1.34809 -2.958751,2.49416 -4.126531,3.07709 -0.388105,0.19374 -0.706215,0.39805 -0.70692,0.45403 -0.0019,0.16251 1.226473,0.22812 3.923962,0.20951 1.916721,-0.0131 2.579529,-0.0673 2.799071,-0.22857 z m 22.510862,0.0669 c 0.06752,-0.064 0.04665,-0.14077 -0.0464,-0.17059 -1.290344,-0.41344 -5.560485,-3.86448 -6.459936,-5.22076 -0.379428,-0.57214 -0.529484,-1.15613 -0.943623,-3.67231 -0.270848,-1.64557 -0.497644,-3.22347 -0.503999,-3.50642 -0.0098,-0.43613 -0.03331,-0.4668 -0.154571,-0.20146 -0.196934,0.43101 -0.553833,7.60472 -0.419292,8.42774 0.243399,1.48899 1.227963,3.8304 1.776333,4.22434 0.121494,0.0873 0.370596,0.19557 0.553562,0.24062 0.496526,0.12232 6.055699,0.0136 6.197924,-0.12116 z"
         style="display:inline;fill:#dac00e;fill-opacity:1;stroke-width:0.15636195" />
    </g>
    <g
       inkscape:groupmode="layer"
       id="layer4"
       inkscape:label="Main Text"
       style="display:inline">
      <path
         inkscape:connector-curvature="0"
         id="path6172"
         d="m 78.871734,125.42197 c -0.976944,-1.11257 -2.820332,-3.71807 -4.096404,-5.78999 -1.276083,-2.07192 -2.355448,-3.64737 -2.398597,-3.50099 -0.04313,0.14637 -0.686297,2.5094 -1.429206,5.2512 -1.374263,5.07186 -1.688289,5.85479 -2.07727,5.1791 -0.159603,-0.27727 -3.821875,-17.41459 -4.744074,-22.19959 -0.102377,-0.53121 -0.0082,-0.64095 0.550164,-0.64095 0.856275,0 0.825363,-0.10522 2.842132,9.67545 0.887307,4.30312 1.655372,7.86904 1.706814,7.92427 0.08238,0.0883 1.03592,-3.07171 2.031829,-6.7334 0.185545,-0.68217 0.51242,-1.31244 0.726405,-1.40061 0.521245,-0.21473 0.989378,0.45156 3.533781,5.02956 1.905252,3.42802 3.480579,5.7294 3.922401,5.73018 0.08084,1.5e-4 0.109207,-3.16722 0.06307,-7.03857 -0.107737,-9.04098 0.321461,-12.90201 1.434204,-12.90201 0.354522,0 0.381375,0.86494 0.223316,7.19276 -0.09881,3.95602 -0.254509,9.22983 -0.345987,11.71961 l -0.166316,4.52684 z m 8.452384,1.04813 c -0.687007,-0.73755 -0.990588,-1.39343 -1.238798,-2.67635 -0.718709,-3.71486 0.234927,-7.55131 2.398749,-9.65005 0.88247,-0.85592 1.249736,-1.0225 2.254435,-1.0225 1.070074,0 1.330715,0.14008 2.403383,1.29169 1.002728,1.07651 1.189422,1.44397 1.120702,2.20565 l -0.08247,0.91397 -3.1371,0.60682 c -1.725397,0.33375 -3.244406,0.72202 -3.375552,0.86282 -0.384675,0.41298 -0.601486,4.14546 -0.290524,5.00137 0.461715,1.27084 1.694304,1.76166 4.450013,1.77199 1.922001,0.007 2.394489,0.0886 2.285503,0.39346 -0.213921,0.59849 -1.326185,0.93323 -3.697945,1.11292 l -2.180393,0.16519 z m 3.706222,-9.68282 c 0.957129,-0.31033 1.82106,-1.21469 1.572617,-1.64625 -0.09339,-0.16223 -0.643909,-0.44747 -1.223386,-0.63385 -1.303412,-0.41925 -2.128516,-0.0272 -2.951551,1.40254 -0.452407,0.78586 -0.49128,1.0182 -0.20243,1.20983 0.372566,0.2472 1.388671,0.12684 2.80475,-0.33227 z m 23.65364,10.15236 c -0.91355,-0.55676 -1.267,-1.26373 -1.267,-2.53428 0,-1.43358 0.47505,-2.3602 1.46988,-2.86701 1.25888,-0.64135 3.627,-0.56752 4.94457,0.15412 l 1.08661,0.59513 -0.12902,-2.94524 c -0.14512,-3.31327 -0.62966,-4.91084 -1.6392,-5.40466 -0.54935,-0.26871 -0.98572,-0.19569 -2.54965,0.42665 -1.03778,0.41299 -1.94805,0.75088 -2.02281,0.75088 -0.0748,0 -0.0978,-0.27556 -0.0512,-0.61236 0.19839,-1.4329 3.10257,-2.50913 4.9856,-1.84759 1.18031,0.41465 2.00486,1.95009 2.38795,4.44664 0.43377,2.82685 0.74566,8.35124 0.5013,8.87932 -0.34422,0.74391 -1.75746,1.14766 -4.47337,1.27802 -1.946,0.0934 -2.68552,0.0205 -3.24369,-0.31962 z m 5.11697,-1.32835 c 0.97387,-0.58762 1.00177,-0.64484 0.6603,-1.35378 -0.89601,-1.86017 -2.55281,-2.38032 -4.39886,-1.38095 -0.89219,0.483 -1.20614,0.828 -1.26705,1.39242 -0.19502,1.80671 2.87262,2.62934 5.00561,1.34231 z m 8.41517,1.32835 c -0.91358,-0.55676 -1.26702,-1.26373 -1.26702,-2.53428 0,-1.43358 0.47506,-2.3602 1.46989,-2.86701 1.25888,-0.64135 3.62699,-0.56752 4.94457,0.15412 l 1.08662,0.59513 -0.12903,-2.94524 c -0.14513,-3.31327 -0.62966,-4.91084 -1.63921,-5.40466 -0.54935,-0.26871 -0.98572,-0.19569 -2.54966,0.42665 -1.03777,0.41299 -1.94803,0.75088 -2.0228,0.75088 -0.0748,0 -0.0978,-0.27556 -0.0512,-0.61236 0.1984,-1.4329 3.10257,-2.50913 4.98561,-1.84759 1.18031,0.41465 2.00486,1.95009 2.38794,4.44664 0.43376,2.82685 0.74567,8.35124 0.50131,8.87932 -0.34422,0.74391 -1.75747,1.14766 -4.47338,1.27802 -1.94598,0.0934 -2.68552,0.0205 -3.24368,-0.31962 z m 5.11695,-1.32835 c 0.97387,-0.58762 1.00177,-0.64484 0.6603,-1.35378 -0.89601,-1.86017 -2.55282,-2.38032 -4.39885,-1.38095 -0.89219,0.483 -1.20614,0.828 -1.26706,1.39242 -0.19502,1.80671 2.87262,2.62934 5.00561,1.34231 z m 10.34128,1.11206 c -0.64059,-0.35252 -1.34985,-0.9499 -1.57617,-1.32752 -0.39929,-0.66627 -0.392,-0.68193 0.24613,-0.5294 0.36168,0.0865 1.25686,0.4404 1.98928,0.78653 1.18276,0.55895 1.46189,0.59166 2.49626,0.29262 1.6361,-0.47296 2.6739,-1.65747 2.66872,-3.04596 -0.008,-2.11158 -0.77645,-2.5137 -4.69484,-2.45634 l -2.97421,0.0435 -0.83605,-1.02228 c -0.72013,-0.88053 -0.81654,-1.17833 -0.69543,-2.14785 0.29371,-2.35087 2.56382,-3.77098 5.72182,-3.57941 2.12514,0.12891 2.9521,0.68689 2.9521,1.99183 0,0.99127 -0.1104,1.00104 -1.10981,0.0982 -0.99026,-0.89456 -1.77689,-1.1095 -3.21393,-0.87814 -1.70581,0.27463 -2.77875,1.09075 -2.98489,2.27046 -0.0953,0.54567 -0.0948,1.12863 7.3e-4,1.29547 0.10689,0.18578 1.3443,0.30334 3.19299,0.30334 1.66014,0 3.35455,0.13673 3.76537,0.30384 2.46884,1.00425 2.97395,4.26541 0.99045,6.39485 -1.77086,1.90119 -3.89305,2.33219 -5.93912,1.20621 z m 12.0783,0.38145 c -0.18547,-0.32216 -0.662,-13.19078 -0.49936,-13.4851 0.065,-0.11749 0.29266,-0.21364 0.50609,-0.21364 0.44952,0 0.80187,0.81191 1.04538,2.40876 l 0.17182,1.12691 0.45666,-1.4482 c 0.59992,-1.90249 1.19841,-2.84713 2.23291,-3.52432 1.60635,-1.05153 3.53188,-0.55518 4.80657,1.23902 1.10768,1.55907 1.51192,3.94897 1.56541,9.25478 0.0471,4.67359 0.0377,4.76041 -0.52345,4.84627 -0.56351,0.0863 -0.57312,0.0149 -0.6917,-5.12752 -0.13151,-5.70301 -0.35023,-6.87103 -1.56484,-8.35619 -2.69993,-3.30134 -5.70758,1.82307 -6.23249,10.61888 -0.15191,2.54544 -0.23513,2.91983 -0.64895,2.91983 -0.26108,0 -0.5419,-0.11676 -0.62405,-0.25948 z m 15.14193,-1.80576 c -0.08,-1.13588 -0.20776,-4.27649 -0.28384,-6.97911 -0.13006,-4.62012 -0.10939,-4.91387 0.34564,-4.91387 0.60222,0 1.0998,1.123 1.0998,2.48221 0,1.28606 0.21496,1.07124 0.84254,-0.84199 0.26972,-0.82227 0.90888,-1.9443 1.42037,-2.49343 0.83387,-0.89523 1.07829,-0.99839 2.36543,-0.99839 1.75951,0 2.68679,0.64068 3.52589,2.43613 0.88172,1.88668 1.13251,3.84754 1.13251,8.85479 0,4.49632 -0.003,4.5189 -0.597,4.51909 -0.59538,1.9e-4 -0.59675,-0.0108 -0.50429,-4.03248 0.12947,-5.63146 -0.55767,-8.86101 -2.13823,-10.04953 -2.67159,-2.00897 -5.32282,3.04627 -5.70454,10.87713 -0.15067,3.09088 -0.17757,3.20469 -0.75748,3.20469 -0.55613,0 -0.6122,-0.15503 -0.7468,-2.06524 z m -69.77149,1.59047 c -0.0973,-0.10444 -0.1769,-0.43862 -0.1769,-0.74262 0,-0.38861 0.12549,-0.50101 0.42266,-0.3786 1.70399,0.702 3.88809,0.29896 4.96831,-0.91683 1.96557,-2.21224 1.58481,-5.9695 -0.74759,-7.37714 -1.37358,-0.82899 -2.03346,-0.81358 -3.01194,0.0703 -1.06112,0.95857 -1.54087,2.50283 -1.92232,6.18763 -0.26609,2.57026 -0.3901,3.06226 -0.771997,3.06226 -0.498994,0 -0.585171,-1.294 -0.962777,-14.45673 -0.172089,-5.99807 -0.16864,-6.05331 0.377434,-6.05331 0.303103,0 0.613753,0.22433 0.690313,0.4985 0.0766,0.27419 0.277407,2.67771 0.446287,5.34117 0.16893,2.66346 0.32969,4.87089 0.35726,4.9054 0.0276,0.0346 0.47961,-0.26531 1.0045,-0.66625 2.07048,-1.58156 4.91156,-0.58971 6.21644,2.17024 1.69863,3.59273 0.66456,7.15002 -2.3586,8.11388 -1.37415,0.4381 -4.20749,0.58946 -4.53108,0.24206 z m 16.53926,-19.18068 v -0.85459 h 7.96007 7.96007 v 0.85459 0.85457 h -7.96007 -7.96007 z m 41.92305,-0.4273 v -0.71215 h 7.96007 7.96007 v 0.71215 0.71215 h -7.96007 -7.96007 z"
         style="display:inline;fill:#dac00e;fill-opacity:1;stroke-width:0.27492544" />
    </g>
    <g
       inkscape:groupmode="layer"
       id="layer5"
       inkscape:label="Tag Text"
       style="display:inline">
      <path
         inkscape:connector-curvature="0"
         id="path6352"
         d="m 134.61586,137.36923 c -0.0705,-2.36419 -0.18759,-3.219 -0.46329,-3.37991 -0.59591,-0.3478 0.8082,-1.51416 1.82282,-1.51416 0.87517,0 2.11457,0.93777 2.11457,1.59995 0,0.81598 -0.66179,1.66552 -1.60305,2.05784 -1.05088,0.43798 -1.30037,0.97246 -1.30855,2.80321 -0.002,0.49785 -0.1085,1.06097 -0.23616,1.25139 -0.14276,0.21298 -0.26837,-0.87172 -0.32634,-2.81832 z m 2.48289,-2.08066 c 0.97664,-0.83145 0.16842,-2.31401 -1.26149,-2.31401 -0.89207,0 -1.12938,0.41866 -0.89251,1.57451 0.11804,0.57605 0.21982,1.14381 0.22615,1.2617 0.0166,0.31058 1.38501,-0.0601 1.92785,-0.5222 z m -64.508231,0.88216 c -0.174449,-0.1648 -0.317189,-0.84409 -0.317189,-1.50954 0,-0.96349 0.137075,-1.33942 0.672969,-1.84566 0.616725,-0.58261 0.721643,-0.60525 1.255538,-0.27094 0.987221,0.61817 0.86585,1.09242 -0.325641,1.27241 -0.848036,0.12811 -1.099241,0.28846 -1.23146,0.78614 -0.226638,0.85304 0.298257,1.36783 1.39467,1.36783 0.538262,0 0.841803,0.10173 0.744998,0.2497 -0.228106,0.34867 -1.810042,0.31265 -2.193885,-0.05 z m 1.59916,-3.07133 c -0.0975,-0.36859 -0.928169,-0.30349 -1.064705,0.0834 -0.08062,0.2284 0.07873,0.3069 0.506623,0.24972 0.343292,-0.046 0.594427,-0.19582 0.558082,-0.33316 z m 2.048509,3.15249 c 0,-0.12018 0.317828,-0.2185 0.706277,-0.2185 1.216665,0 1.84207,-1.3649 0.992954,-2.16703 -0.885141,-0.83619 -1.527241,-0.36582 -1.850433,1.3555 -0.205129,1.09248 -0.216087,1.10286 -0.395102,0.37456 -0.293801,-1.19537 -0.280275,-5.11886 0.01768,-5.11886 0.147015,0 0.264319,0.66879 0.264319,1.50698 0,1.43892 0.02426,1.49469 0.538642,1.23468 0.776378,-0.39252 1.571248,-0.0629 1.961264,0.81337 0.411647,0.92489 0.259995,1.58317 -0.477071,2.07088 -0.605556,0.40069 -1.758503,0.49799 -1.758503,0.14842 z m 7.543649,-0.11799 c -0.435253,-0.30067 -0.366947,-0.33389 0.641641,-0.31212 0.813282,0.0175 1.212332,-0.0998 1.427797,-0.41974 0.391226,-0.58096 -0.141357,-0.92022 -1.452769,-0.92545 -1.185804,-0.005 -1.71171,-0.50423 -1.298609,-1.23342 0.437515,-0.77228 2.329619,-1.06238 2.566336,-0.39346 0.04963,0.14027 -0.401598,0.24969 -1.029599,0.24969 -0.853771,0 -1.139543,0.10329 -1.209232,0.43699 -0.07552,0.36163 0.105782,0.43763 1.051521,0.44081 1.815523,0.006 2.421763,0.75233 1.505288,1.85299 -0.586399,0.70424 -1.450112,0.82335 -2.202374,0.30371 z m 3.52423,-0.0765 c -0.490741,-0.55875 -0.415077,-2.40509 0.130849,-3.19218 0.927798,-1.33766 2.546109,-0.46066 2.546109,1.37977 0,1.70628 -1.737165,2.88241 -2.676958,1.81241 z m 2.138553,-1.06295 c 0.459757,-1.04853 0.05219,-2.14469 -0.797439,-2.14469 -1.127462,0 -1.771242,2.148 -0.892549,2.97808 0.544454,0.51434 1.25205,0.16541 1.689988,-0.83339 z m 1.529605,1.33093 c -0.109029,-0.10334 -0.19823,-1.76475 -0.19823,-3.69203 0,-2.40265 0.08554,-3.42332 0.272075,-3.2471 0.167726,0.15843 0.243755,1.57452 0.198244,3.69202 -0.04069,1.88926 -0.16304,3.35046 -0.272089,3.24711 z m 1.808191,-0.41679 c -0.211578,-0.309 -0.452208,-0.87082 -0.534743,-1.24849 -0.08256,-0.37767 -0.211796,-0.96759 -0.287263,-1.31092 -0.0986,-0.4488 -0.02438,-0.62427 0.264337,-0.62427 0.265231,0 0.401508,0.2416 0.401508,0.71185 0,1.14505 0.525233,2.28456 1.053041,2.28456 0.547941,0 1.325882,-1.37733 1.325882,-2.34746 0,-0.7335 0.423104,-0.87646 0.627295,-0.21196 0.320387,1.04268 0.477335,3.30854 0.229169,3.30854 -0.143955,0 -0.335147,-0.34678 -0.424889,-0.77059 l -0.16314,-0.77057 -0.686358,0.77057 c -0.81538,0.91542 -1.283893,0.9696 -1.804839,0.20875 z m 5.183177,0.26219 c -0.174444,-0.16481 -0.317185,-0.9322 -0.317185,-1.7053 0,-1.23616 -0.06245,-1.40328 -0.517823,-1.38584 -0.728222,0.0279 -0.69729,-0.45155 0.03966,-0.61466 0.369661,-0.0819 0.643643,-0.35258 0.694809,-0.68668 0.11584,-0.75654 0.57634,-0.69848 0.57634,0.0726 0,0.45778 0.140965,0.62425 0.528638,0.62425 0.290758,0 0.528651,0.11235 0.528651,0.24969 0,0.13734 -0.235626,0.2497 -0.523617,0.2497 -0.603653,0 -0.880691,0.74684 -0.751408,2.0255 0.0722,0.71462 0.19919,0.85839 0.816941,0.92549 0.402246,0.0437 0.662854,0.18413 0.579124,0.31211 -0.216638,0.33114 -1.278201,0.28819 -1.654121,-0.0669 z m 2.802907,-1.38583 c -0.0934,-1.62518 -0.0607,-2.01115 0.15141,-1.78953 0.25748,0.26892 0.44967,3.47501 0.20831,3.47501 -0.14455,0 -0.30642,-0.75847 -0.35972,-1.68548 z m 1.33971,1.27245 c -0.49076,-0.55875 -0.41507,-2.40509 0.13085,-3.19218 0.92779,-1.33766 2.5461,-0.46066 2.5461,1.37977 0,1.70628 -1.73716,2.88241 -2.67695,1.81241 z m 2.13856,-1.06295 c 0.45975,-1.04853 0.0522,-2.14469 -0.79745,-2.14469 -1.12746,0 -1.77125,2.148 -0.89255,2.97808 0.54446,0.51434 1.25206,0.16541 1.69,-0.83339 z m 1.06704,-0.55221 c 0,-1.62875 0.0673,-1.97547 0.3413,-1.7606 0.25344,0.1987 0.42412,0.14229 0.66304,-0.21912 0.44004,-0.66562 1.53563,-0.62445 1.99829,0.0751 0.43694,0.66064 0.74352,3.20936 0.44156,3.67091 -0.11944,0.18255 -0.25478,-0.4423 -0.31542,-1.4563 -0.0744,-1.24498 -0.24228,-1.90456 -0.56125,-2.20588 -0.43048,-0.40666 -0.48435,-0.40213 -0.9991,0.0841 -0.34491,0.32585 -0.65443,1.12267 -0.84561,2.17695 -0.16585,0.91464 -0.39632,1.66298 -0.51217,1.66298 -0.11585,0 -0.21064,-0.91266 -0.21064,-2.02818 z m 4.87444,1.66505 c -0.47047,-0.33299 -0.42746,-0.35051 0.51776,-0.21097 0.81525,0.12038 1.10455,0.0571 1.38322,-0.30304 0.50569,-0.65332 -0.005,-1.12046 -1.22462,-1.12046 -1.65941,0 -2.11072,-1.16925 -0.68771,-1.78175 0.66354,-0.2856 2.00932,-0.11988 2.00932,0.24742 0,0.11225 -0.50183,0.19438 -1.11521,0.18253 -0.8615,-0.0167 -1.1365,0.0779 -1.20883,0.41542 -0.0778,0.36303 0.10198,0.43697 1.06235,0.43697 0.63578,0 1.29871,0.13485 1.47316,0.29965 0.50468,0.47675 0.36883,1.38578 -0.27028,1.80865 -0.7329,0.48496 -1.27991,0.49218 -1.93916,0.0255 z m 6.94028,-0.13627 c -0.27425,-0.96585 -0.21644,-3.49581 0.0798,-3.49581 0.14538,0 0.26909,0.19665 0.27491,0.43698 0.008,0.31156 0.12377,0.23988 0.40494,-0.2497 0.49579,-0.86335 1.78755,-0.96422 2.23492,-0.17455 0.43299,0.76429 0.67175,3.9825 0.29546,3.9825 -0.19576,0 -0.30267,-0.56354 -0.30267,-1.59541 0,-1.23243 -0.12027,-1.7295 -0.52864,-2.18488 l -0.52866,-0.58948 -0.52021,0.57965 c -0.28611,0.3188 -0.59514,0.99298 -0.68673,1.4982 -0.0916,0.50521 -0.25191,1.25565 -0.35624,1.66765 l -0.1897,0.74912 z m 4.27532,0.0864 c -0.49075,-0.55876 -0.41507,-2.4051 0.13085,-3.19218 0.9278,-1.33767 2.5461,-0.46067 2.5461,1.37977 0,1.70628 -1.73716,2.88239 -2.67695,1.81241 z m 2.13856,-1.06296 c 0.45975,-1.04853 0.0522,-2.14469 -0.79744,-2.14469 -1.12747,0 -1.77124,2.14801 -0.89256,2.97807 0.54446,0.51435 1.25206,0.16542 1.69,-0.83338 z m 15.34983,0.99299 c -0.6102,-1.07707 -0.0523,-3.25159 0.92522,-3.60592 0.59702,-0.21643 1.4444,0.27027 1.4444,0.82964 0,0.35324 -0.26397,0.51079 -1.07174,0.63969 -1.04421,0.16668 -1.06965,0.19448 -0.9912,1.0832 0.0758,0.85878 0.1388,0.91667 1.07726,0.98993 1.21706,0.095 1.0435,0.54646 -0.21008,0.54646 -0.61953,0 -0.98556,-0.15062 -1.17386,-0.483 z m 1.78363,-2.97141 c 0.0789,-0.22635 -0.0772,-0.30638 -0.48724,-0.24969 -0.3319,0.0459 -0.65577,0.23334 -0.7197,0.41656 -0.079,0.22636 0.0772,0.30639 0.48725,0.24971 0.33189,-0.0459 0.65576,-0.23336 0.71969,-0.41658 z m 1.36057,3.05891 c -0.52539,-0.59802 0.0255,-1.21322 1.16853,-1.30507 0.89437,-0.0719 0.96444,-0.13628 0.96444,-0.88643 0,-1.06659 -0.40783,-1.43924 -1.24574,-1.13831 -0.48745,0.17508 -0.62267,0.1549 -0.54078,-0.0807 0.13226,-0.38048 1.49145,-0.56789 1.82608,-0.25177 0.44037,0.416 0.80619,3.32223 0.46681,3.70851 -0.42063,0.4788 -2.20554,0.44751 -2.63934,-0.0462 z m 1.85166,-0.0887 c 0.31449,-0.188 0.32028,-0.29425 0.0336,-0.62043 -0.19016,-0.21647 -0.49505,-0.39357 -0.67753,-0.39357 -0.18245,0 -0.48734,0.1771 -0.67752,0.39357 -0.28655,0.32618 -0.28078,0.43243 0.0336,0.62043 0.20871,0.12476 0.49842,0.22684 0.64381,0.22684 0.14538,0 0.43509,-0.10208 0.64381,-0.22684 z m 1.70876,-0.14298 c -0.77471,-1.11695 0.24198,-3.36804 1.52116,-3.36804 0.4938,0 0.91036,0.95203 0.67817,1.54991 -0.069,0.17756 -0.21242,0.0138 -0.3188,-0.36382 -0.23382,-0.83021 -0.7539,-0.88248 -1.31056,-0.13173 -0.52759,0.71158 -0.52719,1.79706 7.3e-4,2.29587 0.36469,0.3445 0.51736,0.34804 1.32163,0.0305 0.95535,-0.37708 1.27774,-0.0888 0.39804,0.35592 -0.89572,0.45287 -1.82432,0.30339 -2.29046,-0.36867 z m 3.91266,0.31364 c -0.53166,-0.60515 -0.62283,-1.60842 -0.22739,-2.50247 0.51509,-1.16458 1.22269,-1.53151 1.98315,-1.02833 0.86707,0.57373 0.6864,0.97725 -0.55385,1.23694 -0.97176,0.20349 -1.13515,0.33267 -1.21062,0.95726 -0.10349,0.8564 0.27666,1.14028 1.54103,1.15073 0.69544,0.005 0.8267,0.0678 0.52864,0.24971 -0.56213,0.34318 -1.73533,0.30685 -2.06096,-0.0638 z m 1.52491,-2.92296 c 0.33095,-0.19773 0.31801,-0.25821 -0.0867,-0.40488 -0.29322,-0.1063 -0.64158,-0.0157 -0.9083,0.23627 -0.40061,0.37846 -0.3942,0.40842 0.0866,0.40488 0.28558,-0.002 0.69431,-0.10844 0.9083,-0.23627 z m 5.39838,2.60742 c -0.81486,-1.17485 0.0784,-3.61584 1.32302,-3.61584 0.84491,0 1.25559,0.53902 1.41247,1.85392 0.11282,0.94556 0.0337,1.1971 -0.54911,1.74776 -0.86146,0.81381 -1.6283,0.81877 -2.18638,0.0141 z m 2.01609,-0.38031 c 0.42181,-0.74456 0.21497,-2.26003 -0.35297,-2.58599 -0.3893,-0.22345 -0.5751,-0.16448 -0.9912,0.3145 -0.49667,0.57173 -0.7133,2.25846 -0.33588,2.615 0.37568,0.35491 1.40342,0.14476 1.68005,-0.34351 z m 2.48456,-0.27067 c 0.17847,-1.27093 0.17494,-1.27919 -0.49459,-1.15828 -0.83392,0.15059 -0.88573,-0.2281 -0.0788,-0.57545 0.51344,-0.22099 0.5826,-0.4111 0.50118,-1.3779 -0.26252,-3.11833 1.3279,-4.82668 3.01224,-3.23554 0.92059,0.86969 0.80927,1.37368 -0.11805,0.53441 -0.42773,-0.38711 -0.98296,-0.65489 -1.25554,-0.60551 -0.61185,0.11085 -1.11487,1.44816 -1.13461,3.01644 -0.0139,1.10244 0.0317,1.18608 0.64591,1.18608 0.86716,0 0.84924,0.40058 -0.0272,0.60838 -0.62399,0.14795 -0.67186,0.2444 -0.5145,1.03678 0.19434,0.97869 -0.0108,1.85064 -0.4353,1.85064 -0.18477,0 -0.21918,-0.4371 -0.10083,-1.28005 z m 10.86753,-0.25779 c -0.2358,-2.07505 -0.36447,-2.45737 -0.82705,-2.45737 -0.43849,0 -0.86452,0.90292 -0.95494,2.02387 -0.0953,1.18163 -0.3924,1.08434 -0.543,-0.1778 -0.16987,-1.42373 -0.55995,-1.85879 -1.15909,-1.29278 -0.28859,0.2726 -0.43792,0.86689 -0.45217,1.79962 -0.0283,1.85655 -0.32494,1.77245 -0.50893,-0.14433 -0.13111,-1.36598 -0.0838,-1.58726 0.42585,-1.9893 0.70189,-0.55374 1.08004,-0.57894 1.58133,-0.10538 0.33697,0.31833 0.44315,0.30279 0.85282,-0.12485 0.52776,-0.55091 1.3955,-0.64735 1.58633,-0.17632 0.27642,0.68235 0.57625,3.82088 0.38384,4.01798 -0.11278,0.11553 -0.28604,-0.50247 -0.38499,-1.37334 z m 1.44809,-0.39735 c 0.003,-1.34163 0.0826,-1.8203 0.26027,-1.56061 0.34003,0.49701 0.34003,3.4958 0,3.4958 -0.15381,0 -0.26262,-0.80898 -0.26027,-1.93519 z m 1.05034,0.87396 c -0.002,-0.58367 -0.0766,-1.4826 -0.16674,-1.9976 -0.10871,-0.62125 -0.0632,-0.93638 0.13508,-0.93638 0.16439,0 0.30367,0.19663 0.30948,0.43698 0.008,0.31156 0.12377,0.23987 0.40492,-0.2497 0.45109,-0.78548 1.66707,-0.95032 2.23569,-0.30308 0.44697,0.50879 0.7021,4.11101 0.29113,4.11101 -0.19379,0 -0.29909,-0.6091 -0.29909,-1.73007 0,-1.66874 -0.36002,-2.51484 -1.07008,-2.51484 -0.51213,0 -1.09951,1.29942 -1.23758,2.73778 -0.16523,1.72117 -0.59843,2.04162 -0.60281,0.4459 z m 4.11881,0.66884 c -0.529,-0.49973 -0.53059,-1.33867 -0.004,-2.04905 0.44766,-0.60375 1.4099,-0.73207 1.91458,-0.25531 0.2467,0.23303 0.31718,-0.2419 0.31718,-2.13721 0,-1.34026 0.0892,-2.38463 0.19825,-2.32083 0.35556,0.20806 0.40494,6.39454 0.0543,6.79376 -0.42181,0.48012 -1.95947,0.46069 -2.48033,-0.0314 z m 1.98516,-0.10701 c 0.42138,0 0.26292,-1.1696 -0.23756,-1.75348 -0.40892,-0.47705 -0.56602,-0.51695 -1.05729,-0.26858 -1.10965,0.56102 -0.46512,2.53123 0.70013,2.1402 0.19361,-0.0649 0.46124,-0.11814 0.59472,-0.11814 z m 1.30001,0.12485 c 0,-0.206 0.17842,-0.37455 0.39648,-0.37455 0.21807,0 0.39649,0.16855 0.39649,0.37455 0,0.206 -0.17842,0.37455 -0.39649,0.37455 -0.21806,0 -0.39648,-0.16855 -0.39648,-0.37455 z m -114.187898,-0.0149 c 0,-0.0768 -0.297359,-1.38414 -0.660813,-2.9051 -0.72131,-3.01862 -0.775118,-3.44739 -0.432654,-3.44739 0.125487,0 0.434573,0.9832 0.686865,2.18487 0.567722,2.70411 0.690712,2.90203 1.050519,1.69054 0.157446,-0.53011 0.405702,-1.00144 0.551679,-1.04741 0.145967,-0.0459 0.654267,0.5306 1.12955,1.28126 0.475284,0.75067 0.964313,1.42333 1.086734,1.49479 0.122419,0.0714 0.222571,-1.05625 0.222571,-2.50608 0,-1.61969 0.114658,-2.74434 0.297368,-2.91694 0.337988,-0.31929 0.423264,3.12647 0.127775,5.16299 l -0.169583,1.16882 -0.639882,-0.56789 c -0.351935,-0.31232 -0.880047,-0.93498 -1.173589,-1.38366 -0.29354,-0.44868 -0.623957,-0.81579 -0.734259,-0.81579 -0.110301,0 -0.357489,0.61801 -0.54931,1.37336 -0.191812,0.75534 -0.4487,1.37335 -0.57086,1.37335 -0.12216,0 -0.222111,-0.0629 -0.222111,-0.13972 z m 58.604108,-0.60938 c -1.20984,-2.57983 -1.51022,-3.32928 -1.38268,-3.44977 0.0774,-0.0731 0.46533,0.56079 0.86203,1.4087 0.3967,0.84791 0.80268,1.54167 0.90218,1.54167 0.0995,0 0.25898,-0.3358 0.35441,-0.74623 0.25755,-1.10782 0.52025,-1.10297 1.30982,0.0241 0.39208,0.55969 0.79316,0.9419 0.89131,0.84934 0.0981,-0.0926 0.24952,-0.86135 0.33637,-1.70839 0.15371,-1.49885 0.15903,-1.48157 0.19824,0.64477 0.0222,1.20169 -0.0645,2.18488 -0.19264,2.18488 -0.12812,0 -0.55048,-0.39328 -0.93858,-0.87395 -0.38811,-0.48066 -0.80239,-0.87395 -0.92064,-0.87395 -0.11825,0 -0.39387,0.42136 -0.61248,0.93638 l -0.39749,0.93637 z m -25.9515,-3.98204 c -0.232397,-0.35522 0.064,-0.76226 0.555,-0.76226 0.23159,0 0.36427,0.17542 0.31482,0.41627 -0.10296,0.50152 -0.63073,0.71145 -0.86982,0.34599 z m 72.54828,-0.26287 c 0,-0.47984 0.51692,-0.67695 0.87879,-0.3351 0.20009,0.18902 -0.30021,0.8345 -0.64683,0.8345 -0.12757,0 -0.23196,-0.22473 -0.23196,-0.4994 z"
         style="display:inline;fill:#dac00e;fill-opacity:1;stroke-width:0.25690815" />
    </g>
  </g>
</svg>
